<?xml version="1.0" encoding="utf-8"?>
<!-- Generator: Adobe Illustrator 23.0.2, SVG Export Plug-In . SVG Version: 6.00 Build 0)  -->
<svg version="1.1" id="Layer_1" xmlns="http://www.w3.org/2000/svg" xmlns:xlink="http://www.w3.org/1999/xlink" x="0px" y="0px"
	 viewBox="0 0 206.3 459.2" style="enable-background:new 0 0 206.3 459.2;" xml:space="preserve">
<g>
	<path d="M8.4,325.9H14v8.4h-1.5v-7.1H10v7.1H8.4V325.9z"/>
	<path d="M15.9,329.9c0-0.6,0-1.4-0.1-1.8h1.4c0,0.3,0,0.6,0.1,0.9h0c0.3-0.7,0.8-1.1,1.6-1.1c1.4,0,2.3,1.3,2.3,3.2
		c0,1.9-0.8,3.3-2.2,3.3c-0.8,0-1.3-0.3-1.6-1h0c0,0.3,0,1,0,1.5v1.9h-1.5V329.9z M19.6,331.2c0-1.2-0.4-2.1-1.1-2.1
		c-0.8,0-1.2,0.9-1.2,2.1c0,1.2,0.4,2.1,1.2,2.1C19.2,333.3,19.6,332.3,19.6,331.2z"/>
	<path d="M22.3,331.2c0-1.9,1-3.2,2.7-3.2c1.7,0,2.7,1.3,2.7,3.2c0,1.9-1,3.2-2.7,3.2C23.3,334.4,22.3,333.1,22.3,331.2z
		 M26.2,331.2c0-1.3-0.4-2.1-1.2-2.1c-0.7,0-1.1,0.8-1.1,2.1c0,1.2,0.4,2.1,1.2,2.1C25.8,333.2,26.2,332.5,26.2,331.2z"/>
	<path d="M28.5,333.1h0.6c0.4-0.7,0.6-1.7,0.6-3.2v-1.8h4.5v5h0.7v2.8h-1.3v-1.6h-3.8v1.6h-1.3V333.1z M32.7,333.1v-3.8h-1.6v0.9
		c0,1.1-0.1,2.2-0.5,2.9H32.7z"/>
	<path d="M35.8,331.2c0-1.9,1-3.2,2.7-3.2c1.7,0,2.7,1.3,2.7,3.2c0,1.9-1,3.2-2.7,3.2C36.8,334.4,35.8,333.1,35.8,331.2z
		 M39.6,331.2c0-1.3-0.4-2.1-1.2-2.1c-0.7,0-1.1,0.8-1.1,2.1c0,1.2,0.4,2.1,1.2,2.1C39.3,333.2,39.6,332.5,39.6,331.2z"/>
	<path d="M42.6,328.1h2.7c1.2,0,2,0.6,2,1.6c0,0.8-0.5,1.2-1.1,1.4c0.7,0.1,1.2,0.6,1.2,1.5c0,1.2-0.8,1.8-2.1,1.8h-2.7V328.1z
		 M45.1,330.6c0.5,0,0.7-0.3,0.7-0.7c0-0.5-0.3-0.7-0.7-0.7h-0.9v1.4H45.1z M45.1,333.2c0.5,0,0.8-0.3,0.8-0.8
		c0-0.5-0.3-0.8-0.8-0.8h-1v1.6H45.1z"/>
	<path d="M48.6,331.2c0-1.9,1-3.2,2.7-3.2c1.7,0,2.7,1.3,2.7,3.2c0,1.9-1,3.2-2.7,3.2C49.6,334.4,48.6,333.1,48.6,331.2z
		 M52.5,331.2c0-1.3-0.4-2.1-1.2-2.1c-0.7,0-1.1,0.8-1.1,2.1c0,1.2,0.4,2.1,1.2,2.1C52.1,333.2,52.5,332.5,52.5,331.2z"/>
	<path d="M54.8,334.2l0.1-1.2c0.1,0,0.2,0.1,0.4,0.1c0.8,0,0.9-0.5,0.9-5h4.4v6.2h-1.5v-5h-1.5c-0.1,4.1-0.4,5.1-1.9,5.1
		C55.4,334.3,54.9,334.3,54.8,334.2z"/>
	<path d="M62.3,328.1h1.5v2.3H65c1.2,0,2.1,0.7,2.1,2c0,1.3-0.8,2-2.4,2h-2.4V328.1z M64.7,333.2c0.6,0,0.9-0.4,0.9-0.9
		c0-0.6-0.3-0.9-0.9-0.9h-1v1.8H64.7z"/>
	<path d="M68.2,331.2c0-1.9,1.1-3.2,3-3.2c0.3,0,0.7,0,1,0.1l-0.1,1.2c-0.2-0.1-0.4-0.1-0.7-0.1c-1,0-1.6,0.9-1.6,2
		c0,1.2,0.6,2,1.7,2c0.2,0,0.5,0,0.7-0.1l0.1,1.2c-0.3,0.1-0.6,0.1-1.1,0.1C69.3,334.3,68.2,333.1,68.2,331.2z"/>
	<path d="M74.6,329.3H73v-1.2h4.7v1.2h-1.6v5h-1.5V329.3z"/>
	<path d="M78.9,328.1h2.7c1.2,0,2,0.6,2,1.6c0,0.8-0.5,1.2-1.1,1.4c0.7,0.1,1.2,0.6,1.2,1.5c0,1.2-0.8,1.8-2.1,1.8h-2.7V328.1z
		 M81.3,330.6c0.5,0,0.7-0.3,0.7-0.7c0-0.5-0.3-0.7-0.7-0.7h-0.9v1.4H81.3z M81.4,333.2c0.5,0,0.8-0.3,0.8-0.8
		c0-0.5-0.3-0.8-0.8-0.8h-1v1.6H81.4z"/>
	<path d="M84.9,331.1c0-1.9,1.1-3.2,2.7-3.2c1.6,0,2.4,1.1,2.4,3.1c0,0.2,0,0.4,0,0.6h-3.6c0,0.9,0.6,1.6,1.8,1.6
		c0.5,0,0.9-0.1,1.4-0.3l0,1.2c-0.5,0.2-1,0.3-1.6,0.3C86,334.4,84.9,333.2,84.9,331.1z M88.6,330.6c0-1-0.4-1.7-1.1-1.7
		c-0.7,0-1.2,0.6-1.2,1.7H88.6z"/>
	<path d="M91.5,328.1H93v2.4h1.9v-2.4h1.5v6.2h-1.5v-2.6H93v2.6h-1.5V328.1z"/>
	<path d="M98.2,328.1h1.5v2.4h1.9v-2.4h1.5v6.2h-1.5v-2.6h-1.9v2.6h-1.5V328.1z"/>
	<path d="M104.6,332.5c0-1.3,1-2.1,2.8-2.1c0.2,0,0.5,0,0.8,0v0c0-0.9-0.4-1.4-1.3-1.4c-0.6,0-1.2,0.2-1.7,0.5l-0.1-1.2
		c0.6-0.3,1.3-0.4,2-0.4c1.8,0,2.4,1,2.4,2.5c0,0.6,0,1.5,0,1.9c0,0.7,0,1.4,0.1,1.9h-1.3c0-0.1,0-0.3,0-0.5c0-0.1,0-0.3,0-0.5h0
		c-0.3,0.7-0.9,1.1-1.8,1.1C105.3,334.4,104.6,333.6,104.6,332.5z M108.2,331.3c-0.1,0-0.3,0-0.5,0c-1.1,0-1.7,0.4-1.7,1.1
		c0,0.5,0.3,0.9,0.9,0.9C107.9,333.3,108.2,332.5,108.2,331.3z"/>
	<path d="M112.2,331.9c-1-0.4-1.2-1.3-1.2-1.8c0-1.3,0.8-2,2.4-2h2.3v6.2h-1.5V332h-0.7l-1.2,2.2h-1.7L112.2,331.9z M114.3,331v-1.8
		h-0.8c-0.7,0-1,0.3-1,0.9c0,0.6,0.4,0.9,1,0.9H114.3z"/>
	<path d="M120.5,328.1h1.4v2.3c0,0.6,0,1.4,0,1.9l1.9-4.3h1.7v6.2H124v-2.6c0-0.7,0-1.2,0-1.6l-1.9,4.2h-1.7V328.1z"/>
	<path d="M8,344.7c0-1.9,1.1-3.2,3-3.2c0.3,0,0.7,0,1,0.1l-0.1,1.2c-0.2-0.1-0.4-0.1-0.7-0.1c-1,0-1.6,0.9-1.6,2c0,1.2,0.6,2,1.7,2
		c0.2,0,0.5,0,0.7-0.1l0.1,1.2c-0.3,0.1-0.6,0.1-1.1,0.1C9.2,347.9,8,346.6,8,344.7z"/>
	<path d="M13,344.7c0-1.9,1.1-3.2,2.7-3.2c1.6,0,2.4,1.1,2.4,3.1c0,0.2,0,0.4,0,0.6h-3.6c0,0.9,0.6,1.6,1.8,1.6
		c0.5,0,0.9-0.1,1.4-0.3l0,1.2c-0.5,0.2-1,0.3-1.6,0.3C14.1,348,13,346.7,13,344.7z M16.7,344.1c0-1-0.4-1.7-1.1-1.7
		c-0.7,0-1.2,0.6-1.2,1.7H16.7z"/>
	<path d="M18.8,347.8l0.1-1.2c0.1,0,0.2,0.1,0.4,0.1c0.8,0,0.9-0.5,0.9-5h4.4v6.2h-1.5v-5h-1.5c-0.1,4.1-0.4,5.1-1.9,5.1
		C19.5,347.9,19,347.8,18.8,347.8z"/>
	<path d="M26.4,341.6h1.5v2.3H29c1.2,0,2.1,0.7,2.1,2c0,1.3-0.8,2-2.4,2h-2.4V341.6z M28.8,346.7c0.6,0,0.9-0.4,0.9-0.9
		c0-0.6-0.3-0.9-0.9-0.9h-1v1.8H28.8z"/>
	<path d="M32.2,344.7c0-1.9,1.1-3.2,3-3.2c0.3,0,0.7,0,1,0.1l-0.1,1.2c-0.2-0.1-0.4-0.1-0.7-0.1c-1,0-1.6,0.9-1.6,2
		c0,1.2,0.6,2,1.7,2c0.2,0,0.5,0,0.7-0.1l0.1,1.2c-0.3,0.1-0.6,0.1-1.1,0.1C33.4,347.9,32.2,346.6,32.2,344.7z"/>
	<path d="M37.6,341.6h1.5v2.7l1.9-2.7h1.6l-2.1,2.9l2.3,3.3h-1.7l-2-2.9v2.9h-1.5V341.6z"/>
	<path d="M43.3,344.7c0-1.9,1-3.2,2.7-3.2c1.7,0,2.7,1.3,2.7,3.2c0,1.9-1,3.2-2.7,3.2C44.3,348,43.3,346.6,43.3,344.7z M47.1,344.7
		c0-1.3-0.4-2.1-1.2-2.1c-0.7,0-1.1,0.8-1.1,2.1c0,1.2,0.4,2.1,1.2,2.1C46.8,346.8,47.1,346,47.1,344.7z"/>
	<path d="M51.2,344.6l-1.7-2.9h1.7c0.6,1.3,0.9,1.8,1,2.2h0c0.1-0.3,0.3-0.9,1-2.2h1.5l-1.7,2.9l1.8,3.2h-1.7
		c-0.7-1.5-1-2.1-1.1-2.4h0c-0.1,0.3-0.4,0.9-1.1,2.4h-1.6L51.2,344.6z"/>
	<path d="M55.6,344.7c0-1.9,1-3.2,2.7-3.2c1.7,0,2.7,1.3,2.7,3.2c0,1.9-1,3.2-2.7,3.2C56.6,348,55.6,346.6,55.6,344.7z M59.4,344.7
		c0-1.3-0.4-2.1-1.2-2.1c-0.7,0-1.1,0.8-1.1,2.1c0,1.2,0.4,2.1,1.2,2.1C59.1,346.8,59.4,346,59.4,344.7z"/>
	<path d="M61.9,347.6l0.1-1.2c0.4,0.2,1,0.3,1.4,0.3c0.7,0,1.2-0.3,1.2-0.9c0-0.7-0.5-0.7-1.1-0.7c-0.1,0-0.4,0-0.6,0v-1.1
		c0.2,0,0.5,0,0.5,0c0.5,0,1.1-0.2,1.1-0.8c0-0.5-0.5-0.7-1-0.7c-0.5,0-1.1,0.2-1.5,0.4l-0.1-1.2c0.4-0.1,1.1-0.4,1.9-0.4
		c1.2,0,2.1,0.4,2.1,1.7c0,0.7-0.4,1.2-1,1.4c0.7,0.2,1.1,0.7,1.1,1.5c0,1.3-1,1.9-2.3,1.9C63.1,347.9,62.4,347.8,61.9,347.6z"/>
	<path d="M68.6,345.4c-1-0.4-1.2-1.3-1.2-1.8c0-1.3,0.8-2,2.4-2h2.3v6.2h-1.5v-2.2h-0.7l-1.2,2.2h-1.7L68.6,345.4z M70.7,344.5v-1.8
		h-0.8c-0.7,0-1,0.3-1,0.9c0,0.6,0.4,0.9,1,0.9H70.7z"/>
	<path d="M74,341.6h1.4v2.3c0,0.6,0,1.4,0,1.9l1.9-4.3H79v6.2h-1.4v-2.6c0-0.7,0-1.2,0-1.6l-1.9,4.2H74V341.6z M74.7,339.4l0.6-0.3
		c0.2,0.4,0.5,0.9,1.1,0.9s1-0.4,1.1-0.9l0.6,0.3c-0.2,0.6-0.7,1.5-1.8,1.5C75.4,340.8,74.9,340,74.7,339.4z"/>
	<path d="M80.4,344.7c0-1.9,1.1-3.2,3-3.2c0.3,0,0.7,0,1,0.1l-0.1,1.2c-0.2-0.1-0.4-0.1-0.7-0.1c-1,0-1.6,0.9-1.6,2
		c0,1.2,0.6,2,1.7,2c0.2,0,0.5,0,0.7-0.1l0.1,1.2c-0.3,0.1-0.6,0.1-1.1,0.1C81.6,347.9,80.4,346.6,80.4,344.7z"/>
	<path d="M86.9,342.8h-1.6v-1.2H90v1.2h-1.6v5h-1.5V342.8z"/>
	<path d="M91.2,341.6h2.7c1.2,0,2,0.6,2,1.6c0,0.8-0.5,1.2-1.1,1.4c0.7,0.1,1.2,0.6,1.2,1.5c0,1.2-0.8,1.8-2.1,1.8h-2.7V341.6z
		 M93.6,344.1c0.5,0,0.7-0.3,0.7-0.7c0-0.5-0.3-0.7-0.7-0.7h-0.9v1.4H93.6z M93.6,346.8c0.5,0,0.8-0.3,0.8-0.8
		c0-0.5-0.3-0.8-0.8-0.8h-1v1.6H93.6z"/>
	<path d="M97.1,344.7c0-1.9,1.1-3.2,2.7-3.2c1.6,0,2.4,1.1,2.4,3.1c0,0.2,0,0.4,0,0.6h-3.6c0,0.9,0.6,1.6,1.8,1.6
		c0.5,0,0.9-0.1,1.4-0.3l0,1.2c-0.5,0.2-1,0.3-1.6,0.3C98.2,348,97.1,346.7,97.1,344.7z M100.9,344.1c0-1-0.4-1.7-1.1-1.7
		c-0.7,0-1.2,0.6-1.2,1.7H100.9z"/>
	<path d="M103.8,341.6h1.5v2.4h1.9v-2.4h1.5v6.2h-1.5v-2.6h-1.9v2.6h-1.5V341.6z"/>
	<path d="M110.5,341.6h1.5v2.4h1.9v-2.4h1.5v6.2h-1.5v-2.6H112v2.6h-1.5V341.6z"/>
	<path d="M116.9,346c0-1.3,1-2.1,2.8-2.1c0.2,0,0.5,0,0.8,0v0c0-0.9-0.4-1.4-1.3-1.4c-0.6,0-1.2,0.2-1.7,0.5l-0.1-1.2
		c0.6-0.3,1.3-0.4,2-0.4c1.8,0,2.4,1,2.4,2.5c0,0.6,0,1.5,0,1.9c0,0.7,0,1.4,0.1,1.9h-1.3c0-0.1,0-0.3,0-0.5c0-0.1,0-0.3,0-0.5h0
		c-0.3,0.7-0.9,1.1-1.8,1.1C117.6,347.9,116.9,347.1,116.9,346z M120.5,344.9c-0.1,0-0.3,0-0.5,0c-1.1,0-1.7,0.4-1.7,1.1
		c0,0.5,0.3,0.9,0.9,0.9C120.1,346.9,120.5,346,120.5,344.9z"/>
	<path d="M124.5,345.4c-1-0.4-1.2-1.3-1.2-1.8c0-1.3,0.8-2,2.4-2h2.3v6.2h-1.5v-2.2h-0.7l-1.2,2.2h-1.7L124.5,345.4z M126.6,344.5
		v-1.8h-0.8c-0.7,0-1,0.3-1,0.9c0,0.6,0.4,0.9,1,0.9H126.6z"/>
	<path d="M132.4,344.7c0-1.9,1-3.2,2.7-3.2c1.7,0,2.7,1.3,2.7,3.2c0,1.9-1,3.2-2.7,3.2C133.4,348,132.4,346.6,132.4,344.7z
		 M136.3,344.7c0-1.3-0.4-2.1-1.2-2.1c-0.7,0-1.1,0.8-1.1,2.1c0,1.2,0.4,2.1,1.2,2.1C135.9,346.8,136.3,346,136.3,344.7z"/>
	<path d="M139.3,343.4c0-0.6,0-1.4-0.1-1.8h1.4c0,0.3,0,0.6,0.1,0.9h0c0.3-0.7,0.8-1.1,1.6-1.1c1.4,0,2.3,1.3,2.3,3.2
		c0,1.9-0.8,3.3-2.2,3.3c-0.8,0-1.3-0.3-1.6-1h0c0,0.3,0,1,0,1.5v1.9h-1.5V343.4z M143,344.7c0-1.2-0.4-2.1-1.1-2.1
		c-0.8,0-1.2,0.9-1.2,2.1c0,1.2,0.4,2.1,1.2,2.1C142.6,346.8,143,345.9,143,344.7z"/>
	<path d="M146,341.6h3.8v1.2h-2.3v5H146V341.6z"/>
	<path d="M150.5,346c0-1.3,1-2.1,2.8-2.1c0.2,0,0.5,0,0.8,0v0c0-0.9-0.4-1.4-1.3-1.4c-0.6,0-1.2,0.2-1.7,0.5l-0.1-1.2
		c0.6-0.3,1.3-0.4,2-0.4c1.8,0,2.4,1,2.4,2.5c0,0.6,0,1.5,0,1.9c0,0.7,0,1.4,0.1,1.9h-1.3c0-0.1,0-0.3,0-0.5c0-0.1,0-0.3,0-0.5h0
		c-0.3,0.7-0.9,1.1-1.8,1.1C151.2,347.9,150.5,347.1,150.5,346z M154.1,344.9c-0.1,0-0.3,0-0.5,0c-1.1,0-1.7,0.4-1.7,1.1
		c0,0.5,0.3,0.9,0.9,0.9C153.7,346.9,154.1,346,154.1,344.9z"/>
	<path d="M157.2,341.6h1.5v2.4h1.9v-2.4h1.5v6.2h-1.5v-2.6h-1.9v2.6h-1.5V341.6z"/>
	<path d="M163.9,341.6h1.4v2.3c0,0.6,0,1.4,0,1.9l1.9-4.3h1.7v6.2h-1.4v-2.6c0-0.7,0-1.2,0-1.6l-1.9,4.2h-1.7V341.6z"/>
	<path d="M170.2,347.6l0.1-1.2c0.4,0.2,1,0.3,1.4,0.3c0.7,0,1.2-0.3,1.2-0.9c0-0.7-0.5-0.7-1.1-0.7c-0.1,0-0.4,0-0.6,0v-1.1
		c0.2,0,0.5,0,0.5,0c0.5,0,1.1-0.2,1.1-0.8c0-0.5-0.5-0.7-1-0.7c-0.5,0-1.1,0.2-1.5,0.4l-0.1-1.2c0.4-0.1,1.1-0.4,1.9-0.4
		c1.2,0,2.1,0.4,2.1,1.7c0,0.7-0.4,1.2-1,1.4c0.7,0.2,1.1,0.7,1.1,1.5c0,1.3-1,1.9-2.3,1.9C171.4,347.9,170.7,347.8,170.2,347.6z"/>
	<path d="M175.7,346c0-1.3,1-2.1,2.8-2.1c0.2,0,0.5,0,0.8,0v0c0-0.9-0.4-1.4-1.3-1.4c-0.6,0-1.2,0.2-1.7,0.5l-0.1-1.2
		c0.6-0.3,1.3-0.4,2-0.4c1.8,0,2.4,1,2.4,2.5c0,0.6,0,1.5,0,1.9c0,0.7,0,1.4,0.1,1.9h-1.3c0-0.1,0-0.3,0-0.5c0-0.1,0-0.3,0-0.5h0
		c-0.3,0.7-0.9,1.1-1.8,1.1C176.4,347.9,175.7,347.1,175.7,346z M179.3,344.9c-0.1,0-0.3,0-0.5,0c-1.1,0-1.7,0.4-1.7,1.1
		c0,0.5,0.3,0.9,0.9,0.9C178.9,346.9,179.3,346,179.3,344.9z"/>
	<path d="M186.6,347.8h-4.2v-6.2h1.5v5h1.9v-5h1.5v5h0.7v2.8h-1.3V347.8z"/>
	<path d="M189.1,341.6h1.4v2.3c0,0.6,0,1.4,0,1.9l1.9-4.3h1.7v6.2h-1.4v-2.6c0-0.7,0-1.2,0-1.6l-1.9,4.2h-1.7V341.6z"/>
	<path d="M196.8,345.4c-1-0.4-1.2-1.3-1.2-1.8c0-1.3,0.8-2,2.4-2h2.3v6.2h-1.5v-2.2h-0.7l-1.2,2.2h-1.7L196.8,345.4z M198.9,344.5
		v-1.8h-0.8c-0.7,0-1,0.3-1,0.9c0,0.6,0.4,0.9,1,0.9H198.9z"/>
	<path d="M8.1,357.2c0-2.7,1.2-4.4,3.4-4.4c2.1,0,3.3,1.7,3.3,4.3c0,2.7-1.2,4.4-3.4,4.4C9.3,361.5,8.1,359.8,8.1,357.2z
		 M13.3,357.2c0-2-0.6-3.2-1.8-3.2c-1.1,0-1.8,1.2-1.8,3.1c0,1.9,0.7,3.1,1.8,3.1C12.6,360.3,13.3,359.1,13.3,357.2z"/>
	<path d="M16.2,357.8c0-1.8,0.1-3.4,1-4.4c1.1-1.2,2.9-0.7,4.1-1.1l-0.1,1.4c-0.9,0.3-2.4,0-3.1,0.6c-0.7,0.5-0.9,1.3-0.9,2.4
		c0.2-0.8,1-1.5,1.9-1.5c1.5,0,2.5,1.2,2.5,3.1c0,1.7-0.9,3.2-2.7,3.2C16.9,361.5,16.2,359.9,16.2,357.8z M20.1,358.4
		c0-1.1-0.3-2-1.1-2c-0.8,0-1.1,0.9-1.1,2c0,1.2,0.4,2,1.1,2C19.7,360.3,20.1,359.5,20.1,358.4z"/>
	<path d="M23.7,356.4h-1.3v-1.2h2.8v2.3h1.1c1.2,0,2.1,0.7,2.1,2c0,1.3-0.8,2-2.4,2h-2.4V356.4z M26.1,360.3c0.6,0,0.9-0.4,0.9-0.9
		c0-0.6-0.3-0.9-0.9-0.9h-1v1.8H26.1z"/>
	<path d="M29.5,358.2c0-1.9,1.1-3.2,2.7-3.2c1.6,0,2.4,1.1,2.4,3.1c0,0.2,0,0.4,0,0.6H31c0,0.9,0.6,1.6,1.8,1.6
		c0.5,0,0.9-0.1,1.4-0.3l0,1.2c-0.5,0.2-1,0.3-1.6,0.3C30.6,361.5,29.5,360.3,29.5,358.2z M33.3,357.7c0-1-0.4-1.7-1.1-1.7
		c-0.7,0-1.2,0.6-1.2,1.7H33.3z"/>
	<path d="M35.4,360.2h0.6c0.4-0.7,0.6-1.7,0.6-3.2v-1.8h4.5v5h0.7v2.8h-1.3v-1.6h-3.8v1.6h-1.3V360.2z M39.7,360.2v-3.8h-1.6v0.9
		c0,1.1-0.1,2.2-0.5,2.9H39.7z"/>
	<path d="M43,355.2h1.4v2.3c0,0.6,0,1.4,0,1.9l1.9-4.3H48v6.2h-1.4v-2.6c0-0.7,0-1.2,0-1.6l-1.9,4.2H43V355.2z"/>
	<path d="M49.8,355.2h1.5v2.4h1.9v-2.4h1.5v6.2h-1.5v-2.6h-1.9v2.6h-1.5V355.2z"/>
	<path d="M56.2,358.2c0-1.9,1.1-3.2,2.7-3.2c1.6,0,2.4,1.1,2.4,3.1c0,0.2,0,0.4,0,0.6h-3.6c0,0.9,0.6,1.6,1.8,1.6
		c0.5,0,0.9-0.1,1.4-0.3l0,1.2c-0.5,0.2-1,0.3-1.6,0.3C57.3,361.5,56.2,360.3,56.2,358.2z M60,357.7c0-1-0.4-1.7-1.1-1.7
		c-0.7,0-1.2,0.6-1.2,1.7H60z"/>
	<path d="M62.8,355.2h1.5v2.4h1.9v-2.4h1.5v6.2h-1.5v-2.6h-1.9v2.6h-1.5V355.2z"/>
	<path d="M69.5,355.2H71v2.4h1.9v-2.4h1.5v6.2h-1.5v-2.6H71v2.6h-1.5V355.2z"/>
	<path d="M76.2,355.2h1.5v2.3h1.1c1.2,0,2.1,0.7,2.1,2c0,1.3-0.8,2-2.4,2h-2.4V355.2z M78.6,360.3c0.6,0,0.9-0.4,0.9-0.9
		c0-0.6-0.3-0.9-0.9-0.9h-1v1.8H78.6z M81.7,355.2h1.5v6.2h-1.5V355.2z"/>
	<path d="M86.2,358.1l-1.7-2.9h1.7c0.6,1.3,0.9,1.8,1,2.2h0c0.1-0.3,0.3-0.9,1-2.2h1.5l-1.7,2.9l1.8,3.2h-1.7
		c-0.7-1.5-1-2.1-1.1-2.4h0c-0.1,0.3-0.4,0.9-1.1,2.4h-1.6L86.2,358.1z"/>
	<path d="M93.9,353h1.5v3.4H98V353h1.5v8.4H98v-3.7h-2.5v3.7h-1.5V353z"/>
	<path d="M101.2,359.6c0-1.3,1-2.1,2.8-2.1c0.2,0,0.5,0,0.8,0v0c0-0.9-0.4-1.4-1.3-1.4c-0.6,0-1.2,0.2-1.7,0.5l-0.1-1.2
		c0.6-0.3,1.3-0.4,2-0.4c1.8,0,2.4,1,2.4,2.5c0,0.6,0,1.5,0,1.9c0,0.7,0,1.4,0.1,1.9h-1.3c0-0.1,0-0.3,0-0.5c0-0.1,0-0.3,0-0.5h0
		c-0.3,0.7-0.9,1.1-1.8,1.1C101.9,361.5,101.2,360.7,101.2,359.6z M104.8,358.4c-0.1,0-0.3,0-0.5,0c-1.1,0-1.7,0.4-1.7,1.1
		c0,0.5,0.3,0.9,0.9,0.9C104.4,360.4,104.8,359.6,104.8,358.4z"/>
	<path d="M112,361.4h-4.2v-6.2h1.5v5h1.9v-5h1.5v5h0.7v2.8H112V361.4z"/>
	<path d="M114.5,355.2h1.4v2.3c0,0.6,0,1.4,0,1.9l1.9-4.3h1.7v6.2h-1.4v-2.6c0-0.7,0-1.2,0-1.6l-1.9,4.2h-1.7V355.2z"/>
	<path d="M121.3,355.2h1.4v2.3c0,0.6,0,1.4,0,1.9l1.9-4.3h1.7v6.2h-1.4v-2.6c0-0.7,0-1.2,0-1.6l-1.9,4.2h-1.7V355.2z M122.1,352.9
		l0.6-0.3c0.2,0.4,0.5,0.9,1.1,0.9c0.6,0,1-0.4,1.1-0.9l0.6,0.3c-0.2,0.6-0.7,1.5-1.8,1.5C122.8,354.4,122.3,353.5,122.1,352.9z"/>
</g>
<g>
	<path d="M73.3,130.5v-8.9h-1.4v7.7h-1.2c-0.1,0-0.2,0-0.2,0c-0.1,0-0.1,0-0.1,0.1c0,0,0,0.1-0.1,0.2c0,0.1,0,0.1,0,0.2v0.2
		c0,0.1,0,0.2,0,0.3c0,0.1,0,0.1,0.1,0.2c0,0,0.1,0.1,0.1,0.1c0.1,0,0.1,0,0.2,0H73.3z M67,120.9c-0.1,0-0.2,0-0.3,0
		c-0.1,0-0.2,0-0.3,0c-0.1,0-0.3,0-0.4,0.1c-0.1,0-0.3,0.1-0.4,0.2c-0.1,0.1-0.2,0.2-0.2,0.3c-0.1,0.1-0.1,0.3-0.1,0.5
		c0,0.1,0,0.3,0.1,0.4c0.1,0.1,0.1,0.3,0.3,0.4H65v0.7h2v-0.7h-0.3c-0.1,0-0.2,0-0.2,0c-0.1,0-0.2-0.1-0.2-0.1
		c-0.1-0.1-0.1-0.1-0.2-0.2c0-0.1-0.1-0.2-0.1-0.3c0-0.1,0-0.3,0.1-0.4c0.1-0.1,0.2-0.1,0.3-0.1c0.1,0,0.2,0,0.2,0
		c0.1,0,0.2,0,0.2,0.1L67,120.9z M69.6,121.6h-1.4v6.8c0,0.2,0,0.3,0,0.4c0,0.1-0.1,0.2-0.1,0.3c0,0.1-0.1,0.1-0.2,0.1
		c-0.1,0-0.2,0-0.3,0h-1v-5.5h-1.4v5.5h-2v1.2h4.8c0.3,0,0.5,0,0.7-0.1c0.2-0.1,0.3-0.2,0.4-0.4c0.2,0.1,0.4,0.3,0.6,0.4
		c0.2,0.1,0.5,0.1,0.9,0.1h0.1c0.1,0,0.2,0,0.2,0c0.1,0,0.1,0,0.1-0.1c0,0,0.1-0.1,0.1-0.2c0-0.1,0-0.2,0-0.3v-0.2
		c0-0.1,0-0.2,0-0.2c0-0.1,0-0.1-0.1-0.2c0,0-0.1-0.1-0.1-0.1c-0.1,0-0.1,0-0.2,0h0c-0.2,0-0.4,0-0.6-0.1c-0.2,0-0.4-0.1-0.5-0.2
		c0-0.1,0-0.1,0-0.2c0-0.1,0-0.1,0-0.2V121.6z M60.5,129c-0.2,0.2-0.5,0.3-0.8,0.3c-0.1,0-0.2,0-0.4,0c-0.1,0-0.2-0.1-0.4-0.1
		c-0.1,0-0.2-0.1-0.3-0.2c-0.1-0.1-0.2-0.1-0.2-0.2c0-0.3,0.1-0.6,0.2-0.9c0.1-0.3,0.2-0.5,0.3-0.8c0.1-0.2,0.2-0.4,0.4-0.5
		c0.1-0.1,0.3-0.2,0.5-0.2c0.2,0,0.3,0,0.4,0.1c0.1,0.1,0.2,0.2,0.3,0.4c0.1,0.1,0.1,0.3,0.2,0.5c0,0.2,0.1,0.4,0.1,0.6
		C60.8,128.5,60.7,128.8,60.5,129 M60.9,130.4c0.3-0.1,0.5-0.3,0.7-0.6c0.2-0.2,0.3-0.5,0.4-0.8c0.1-0.3,0.1-0.6,0.1-0.9
		c0-0.2,0-0.4-0.1-0.6c0-0.2-0.1-0.4-0.2-0.6c-0.1-0.2-0.2-0.4-0.3-0.6c-0.1-0.2-0.3-0.3-0.4-0.5c-0.2-0.1-0.4-0.3-0.6-0.3
		c-0.2-0.1-0.4-0.1-0.7-0.1c-0.2,0-0.4,0-0.6,0.1c-0.2,0.1-0.5,0.2-0.7,0.5c-0.2,0.2-0.5,0.6-0.7,1c-0.2,0.4-0.4,1-0.6,1.7
		c0,0.2-0.1,0.3-0.1,0.4c0,0.1-0.1,0.2-0.2,0.3c-0.1,0.1-0.1,0.1-0.2,0.1c-0.1,0-0.1,0-0.2,0h-0.2c-0.1,0-0.2,0-0.2,0
		c-0.1,0-0.1,0-0.1,0.1c0,0,0,0.1,0,0.2c0,0.1,0,0.1,0,0.2v0.2c0,0.1,0,0.2,0,0.3c0,0.1,0,0.1,0.1,0.2c0,0,0.1,0.1,0.1,0.1
		c0.1,0,0.1,0,0.2,0h0.4c0.3,0,0.5-0.1,0.8-0.2c0.2-0.1,0.4-0.3,0.6-0.6c0.1,0.1,0.2,0.2,0.3,0.3c0.1,0.1,0.2,0.2,0.4,0.3
		c0.2,0.1,0.3,0.1,0.5,0.2c0.2,0,0.4,0.1,0.6,0.1C60.3,130.6,60.6,130.5,60.9,130.4 M53.8,128.6c-0.1,0.2-0.1,0.3-0.2,0.4
		c-0.1,0.1-0.2,0.2-0.3,0.2c-0.1,0-0.3,0.1-0.4,0.1c-0.1,0-0.2,0-0.3,0c-0.1,0-0.2-0.1-0.4-0.1c-0.1,0-0.2-0.1-0.3-0.1
		c-0.1-0.1-0.2-0.1-0.2-0.2c0-0.3,0.1-0.6,0.2-0.8c0.1-0.3,0.2-0.5,0.3-0.8c0.1-0.2,0.3-0.4,0.4-0.6c0.2-0.1,0.3-0.2,0.5-0.2
		c0.2,0,0.3,0,0.4,0.1c0.1,0.1,0.2,0.2,0.3,0.4c0.1,0.1,0.1,0.3,0.2,0.5c0,0.2,0.1,0.4,0.1,0.6C53.9,128.3,53.9,128.5,53.8,128.6
		 M53.9,130.4c0.3-0.1,0.5-0.3,0.7-0.5c0.2,0.2,0.4,0.4,0.7,0.5c0.3,0.1,0.6,0.2,1,0.2h0c0.1,0,0.2,0,0.2,0c0.1,0,0.1,0,0.1-0.1
		c0,0,0.1-0.1,0.1-0.2c0-0.1,0-0.2,0-0.3v-0.2c0-0.1,0-0.2,0-0.2c0-0.1,0-0.1,0-0.2c0,0-0.1-0.1-0.1-0.1c-0.1,0-0.1,0-0.2,0h0
		c-0.2,0-0.4,0-0.7-0.1c-0.2,0-0.4-0.1-0.6-0.2c0-0.1,0-0.1,0.1-0.2c0-0.1,0-0.2,0-0.3c0-0.1,0-0.2,0-0.3c0-0.1,0-0.2,0-0.2
		c0-0.2,0-0.4-0.1-0.6c0-0.2-0.1-0.4-0.2-0.6c-0.1-0.2-0.2-0.4-0.3-0.6c-0.1-0.2-0.3-0.4-0.4-0.5c-0.2-0.1-0.4-0.3-0.6-0.3
		c-0.2-0.1-0.5-0.1-0.7-0.1c-0.1,0-0.3,0-0.4,0.1c-0.1,0-0.3,0.1-0.5,0.2c-0.2,0.1-0.3,0.2-0.5,0.4c-0.2,0.2-0.3,0.4-0.5,0.6
		c-0.1,0.2-0.3,0.5-0.4,0.9c-0.1,0.3-0.2,0.7-0.3,1.2c-0.1,0.1-0.2,0.1-0.4,0.2c-0.1,0.1-0.3,0.2-0.4,0.3c-0.1,0.1-0.3,0.2-0.4,0.4
		c-0.1,0.1-0.2,0.3-0.3,0.5c-0.1,0.2-0.2,0.4-0.2,0.7c-0.1,0.3-0.1,0.5-0.1,0.9c0,0.2,0,0.5,0.1,0.8c0,0.3,0.1,0.6,0.1,1
		c0.1,0.3,0.1,0.7,0.2,1c0.1,0.3,0.2,0.7,0.3,1l1.3-0.4c-0.1-0.3-0.2-0.7-0.3-1c-0.1-0.3-0.1-0.6-0.2-0.9c-0.1-0.3-0.1-0.6-0.1-0.8
		c0-0.3,0-0.5,0-0.7c0-0.3,0-0.5,0.1-0.8c0.1-0.2,0.1-0.4,0.3-0.5c0.1-0.1,0.2-0.2,0.3-0.3c0.1-0.1,0.3-0.1,0.4-0.1
		c0.1,0.1,0.2,0.2,0.3,0.3c0.1,0.1,0.3,0.2,0.4,0.3c0.2,0.1,0.3,0.1,0.5,0.2c0.2,0,0.4,0.1,0.6,0.1
		C53.3,130.6,53.7,130.5,53.9,130.4 M43.3,130.5h1.4v-8.9h-1.4V130.5z M42,130.5v-8.9h-1.4v7.7h-1.2c-0.1,0-0.2,0-0.2,0
		c-0.1,0-0.1,0-0.1,0.1c0,0,0,0.1-0.1,0.2c0,0.1,0,0.1,0,0.2v0.2c0,0.1,0,0.2,0,0.3c0,0.1,0,0.1,0.1,0.2c0,0,0.1,0.1,0.1,0.1
		c0.1,0,0.1,0,0.2,0H42z M36.6,129c-0.2,0.2-0.5,0.3-0.8,0.3c-0.1,0-0.2,0-0.4,0c-0.1,0-0.2-0.1-0.4-0.1c-0.1,0-0.2-0.1-0.3-0.2
		c-0.1-0.1-0.2-0.1-0.2-0.2c0-0.3,0.1-0.6,0.2-0.9c0.1-0.3,0.2-0.5,0.3-0.8c0.1-0.2,0.2-0.4,0.4-0.5c0.1-0.1,0.3-0.2,0.5-0.2
		c0.2,0,0.3,0.1,0.5,0.2c0.1,0.1,0.2,0.2,0.3,0.4c0.1,0.2,0.1,0.3,0.2,0.5c0,0.2,0.1,0.4,0.1,0.5C36.9,128.5,36.8,128.8,36.6,129
		 M37,130.4c0.3-0.1,0.5-0.3,0.7-0.6c0.1,0.1,0.2,0.2,0.3,0.3c0.1,0.1,0.2,0.2,0.4,0.2c0.1,0.1,0.3,0.1,0.5,0.1
		c0.2,0,0.4,0.1,0.6,0.1h0.1c0.1,0,0.2,0,0.2,0c0.1,0,0.1,0,0.1-0.1c0,0,0-0.1,0.1-0.2c0-0.1,0-0.2,0-0.3v-0.2c0-0.1,0-0.2,0-0.2
		c0-0.1,0-0.1,0-0.2c0,0-0.1-0.1-0.1-0.1c-0.1,0-0.1,0-0.2,0h0c-0.2,0-0.5,0-0.7-0.1c-0.2-0.1-0.4-0.1-0.6-0.3c0-0.1,0-0.1,0-0.2
		c0-0.1,0-0.2,0-0.2c0-0.1,0-0.2,0-0.2c0-0.1,0-0.1,0-0.2c0-0.2,0-0.4-0.1-0.6c0-0.2-0.1-0.4-0.2-0.6c-0.1-0.2-0.2-0.4-0.3-0.6
		c-0.1-0.2-0.3-0.4-0.4-0.5c-0.2-0.1-0.4-0.3-0.6-0.3c-0.2-0.1-0.4-0.1-0.7-0.1c-0.1,0-0.2,0-0.4,0s-0.3,0.1-0.4,0.2
		c-0.2,0.1-0.3,0.2-0.5,0.4c-0.2,0.2-0.3,0.3-0.5,0.6c-0.1,0.2-0.3,0.5-0.4,0.9c-0.1,0.3-0.2,0.7-0.3,1.2c-0.1,0.3-0.2,0.5-0.3,0.6
		c-0.1,0.1-0.3,0.2-0.4,0.2h-0.2c-0.1,0-0.2,0-0.2,0c-0.1,0-0.1,0-0.1,0.1c0,0,0,0.1,0,0.2c0,0.1,0,0.1,0,0.2v0.2c0,0.1,0,0.2,0,0.3
		c0,0.1,0,0.1,0.1,0.2c0,0,0.1,0.1,0.1,0.1c0.1,0,0.1,0,0.2,0h0.4c0.6,0,1-0.3,1.3-0.8c0.1,0.1,0.2,0.2,0.3,0.3
		c0.1,0.1,0.2,0.2,0.4,0.3c0.1,0.1,0.3,0.1,0.5,0.2s0.4,0.1,0.6,0.1C36.4,130.6,36.7,130.5,37,130.4 M30.8,123.3
		c0,0.1,0.1,0.2,0.1,0.2c0.1,0.1,0.1,0.1,0.2,0.1c0.1,0,0.2,0.1,0.3,0.1c0.1,0,0.2,0,0.3-0.1c0.1,0,0.2-0.1,0.2-0.1
		c0.1-0.1,0.1-0.1,0.1-0.2c0-0.1,0.1-0.2,0.1-0.3c0-0.1,0-0.2-0.1-0.3c0-0.1-0.1-0.2-0.1-0.2c-0.1-0.1-0.1-0.1-0.2-0.1
		c-0.1,0-0.2-0.1-0.3-0.1c-0.1,0-0.2,0-0.3,0.1c-0.1,0-0.2,0.1-0.2,0.1c-0.1,0.1-0.1,0.1-0.1,0.2c0,0.1-0.1,0.2-0.1,0.3
		C30.7,123.1,30.7,123.2,30.8,123.3 M29.1,123.3c0,0.1,0.1,0.2,0.1,0.2c0.1,0.1,0.1,0.1,0.2,0.1c0.1,0,0.2,0.1,0.3,0.1
		c0.1,0,0.2,0,0.3-0.1c0.1,0,0.2-0.1,0.2-0.1c0.1-0.1,0.1-0.1,0.1-0.2c0-0.1,0.1-0.2,0.1-0.3c0-0.1,0-0.2-0.1-0.3
		c0-0.1-0.1-0.2-0.1-0.2c-0.1-0.1-0.1-0.1-0.2-0.1c-0.1,0-0.2-0.1-0.3-0.1c-0.1,0-0.2,0-0.3,0.1c-0.1,0-0.1,0.1-0.2,0.1
		c-0.1,0.1-0.1,0.1-0.1,0.2c0,0.1,0,0.2,0,0.3C29,123.1,29,123.2,29.1,123.3 M31.3,125.3h-1.4v3.1c0,0.2,0,0.3,0,0.4
		c0,0.1-0.1,0.2-0.1,0.3c-0.1,0.1-0.1,0.1-0.2,0.1c-0.1,0-0.2,0-0.3,0h-0.6c-0.1,0-0.2,0-0.2,0c-0.1,0-0.1,0-0.1,0.1
		c0,0,0,0.1,0,0.2c0,0.1,0,0.1,0,0.2v0.2c0,0.1,0,0.2,0,0.3c0,0.1,0,0.1,0.1,0.2c0,0,0.1,0.1,0.1,0.1c0.1,0,0.1,0,0.2,0h1
		c0.3,0,0.5,0,0.7-0.1c0.2-0.1,0.3-0.2,0.5-0.4c0.2,0.1,0.4,0.3,0.6,0.4c0.2,0.1,0.5,0.1,0.9,0.1h0.1c0.1,0,0.2,0,0.2,0
		c0.1,0,0.1,0,0.1-0.1c0,0,0.1-0.1,0.1-0.2c0-0.1,0-0.2,0-0.3v-0.2c0-0.1,0-0.2,0-0.2c0-0.1,0-0.1,0-0.2c0,0-0.1-0.1-0.1-0.1
		c-0.1,0-0.1,0-0.2,0h-0.1c-0.2,0-0.4,0-0.6-0.1c-0.2,0-0.4-0.1-0.5-0.2c0-0.1,0-0.1,0-0.2c0-0.1,0-0.1,0-0.2V125.3z M24.2,126.5
		c0.1-0.1,0.3-0.1,0.4-0.1c0.1,0,0.2-0.1,0.3-0.1c0.1,0,0.2,0,0.3,0c0.1,0,0.1,0,0.2,0c0.2,0,0.4,0.1,0.6,0.2
		c0.1,0.1,0.3,0.3,0.3,0.5c0.1,0.2,0.1,0.4,0.2,0.7c0,0.2,0.1,0.5,0.1,0.7c0,0.3,0.1,0.5,0.1,0.7c0,0.1,0.1,0.3,0.1,0.4h-3.4
		c-0.1,0-0.2,0-0.2,0c-0.1,0-0.1,0-0.1,0.1c0,0,0,0.1,0,0.2c0,0.1,0,0.1,0,0.2v0.2c0,0.1,0,0.2,0,0.3c0,0.1,0,0.1,0.1,0.2
		c0,0,0.1,0.1,0.1,0.1c0.1,0,0.1,0,0.2,0h5.4c0.1,0,0.2,0,0.2,0c0.1,0,0.1,0,0.1-0.1c0,0,0.1-0.1,0.1-0.2c0-0.1,0-0.2,0-0.3v-0.2
		c0-0.1,0-0.2,0-0.2c0-0.1,0-0.1,0-0.2c0,0-0.1-0.1-0.1-0.1c-0.1,0-0.1,0-0.2,0h-0.3c-0.1,0-0.2-0.1-0.3-0.2
		c-0.1-0.1-0.2-0.3-0.2-0.5c-0.1-0.2-0.1-0.4-0.1-0.7c0-0.3-0.1-0.5-0.1-0.8c0-0.3-0.1-0.6-0.2-0.8c-0.1-0.3-0.2-0.5-0.4-0.7
		c-0.2-0.2-0.4-0.4-0.6-0.5c-0.2-0.1-0.5-0.2-0.8-0.2c-0.3,0-0.6,0-0.8,0.1c-0.2,0.1-0.5,0.1-0.7,0.2V126.5z M19.9,130.5
		c0.4,0,0.7-0.1,1-0.2c0.3-0.1,0.5-0.3,0.7-0.5c0.1,0.1,0.2,0.2,0.3,0.2c0.1,0.1,0.2,0.1,0.4,0.2c0.1,0.1,0.3,0.1,0.5,0.1
		c0.2,0,0.3,0.1,0.5,0.1h0.1c0.1,0,0.2,0,0.2,0c0.1,0,0.1,0,0.1-0.1c0,0,0.1-0.1,0.1-0.2c0-0.1,0-0.2,0-0.3v-0.2c0-0.1,0-0.2,0-0.2
		c0-0.1,0-0.1,0-0.2c0,0-0.1-0.1-0.1-0.1c-0.1,0-0.1,0-0.2,0h0c-0.2,0-0.4,0-0.6-0.1c-0.2,0-0.4-0.1-0.6-0.2c0,0,0-0.1,0-0.2
		c0-0.1,0-0.1,0-0.2c0-0.1,0-0.1,0-0.2c0-0.1,0-0.1,0-0.2c0-0.6-0.2-1.2-0.5-1.8c-0.4-0.6-0.9-1.3-1.5-2l-1.1,1.1
		c0.2,0.2,0.4,0.4,0.6,0.7c0.2,0.2,0.4,0.5,0.6,0.8c0.2,0.3,0.3,0.5,0.4,0.8c0.1,0.3,0.2,0.5,0.2,0.8c0,0.1,0,0.1,0,0.2
		c0,0.1-0.1,0.2-0.1,0.3c-0.1,0.1-0.2,0.1-0.3,0.2c-0.1,0.1-0.3,0.1-0.5,0.1h-2v1.2H19.9z M15.2,123.3c0,0.1,0.1,0.2,0.1,0.2
		c0.1,0.1,0.1,0.1,0.2,0.1c0.1,0,0.2,0.1,0.3,0.1c0.1,0,0.2,0,0.3-0.1c0.1,0,0.2-0.1,0.2-0.1c0.1-0.1,0.1-0.1,0.1-0.2
		c0-0.1,0.1-0.2,0.1-0.3c0-0.1,0-0.2-0.1-0.3c0-0.1-0.1-0.2-0.1-0.2c-0.1-0.1-0.1-0.1-0.2-0.1c-0.1,0-0.2-0.1-0.3-0.1
		c-0.1,0-0.2,0-0.3,0.1c-0.1,0-0.2,0.1-0.2,0.1c-0.1,0.1-0.1,0.1-0.1,0.2c0,0.1-0.1,0.2-0.1,0.3C15.2,123.1,15.2,123.2,15.2,123.3
		 M13.5,123.3c0,0.1,0.1,0.2,0.1,0.2c0.1,0.1,0.1,0.1,0.2,0.1c0.1,0,0.2,0.1,0.3,0.1c0.1,0,0.2,0,0.3-0.1c0.1,0,0.2-0.1,0.2-0.1
		c0.1-0.1,0.1-0.1,0.1-0.2c0-0.1,0.1-0.2,0.1-0.3c0-0.1,0-0.2-0.1-0.3c0-0.1-0.1-0.2-0.1-0.2c-0.1-0.1-0.1-0.1-0.2-0.1
		c-0.1,0-0.2-0.1-0.3-0.1c-0.1,0-0.2,0-0.3,0.1c-0.1,0-0.1,0.1-0.2,0.1c-0.1,0.1-0.1,0.1-0.1,0.2c0,0.1,0,0.2,0,0.3
		C13.5,123.1,13.5,123.2,13.5,123.3 M14.2,127.2c0.1-0.2,0.1-0.4,0.2-0.6c0.1-0.2,0.2-0.3,0.3-0.4c0.1-0.1,0.2-0.1,0.3-0.1
		c0.1,0,0.2,0,0.3,0.1c0.1,0.1,0.2,0.2,0.3,0.4c0.1,0.2,0.1,0.4,0.2,0.6c0,0.2,0.1,0.5,0.1,0.8c0,0.2,0,0.4,0,0.5
		c0,0.2-0.1,0.3-0.2,0.4c-0.1,0.1-0.2,0.2-0.3,0.3c-0.1,0.1-0.3,0.1-0.4,0.1c-0.1,0-0.3,0-0.4-0.1c-0.1,0-0.2-0.1-0.3-0.2
		c-0.1-0.1-0.1-0.2-0.2-0.4c0-0.2-0.1-0.4-0.1-0.6C14.1,127.7,14.2,127.4,14.2,127.2 M15.2,130.5c0.3,0,0.6-0.1,0.9-0.2
		c0.3-0.1,0.5-0.3,0.7-0.5c0.2-0.2,0.3-0.5,0.4-0.7c0.1-0.3,0.1-0.6,0.1-0.9c0-0.5-0.1-1-0.2-1.4c-0.1-0.4-0.3-0.7-0.5-1
		c-0.2-0.3-0.4-0.5-0.7-0.6c-0.3-0.1-0.5-0.2-0.8-0.2c-0.2,0-0.5,0.1-0.8,0.2c-0.3,0.1-0.5,0.3-0.7,0.6c-0.2,0.3-0.4,0.6-0.5,1
		c-0.1,0.4-0.2,0.9-0.2,1.4c0,0.3,0,0.6,0.1,0.9c0.1,0.3,0.2,0.5,0.4,0.7c0.2,0.2,0.4,0.4,0.7,0.5c0.3,0.1,0.6,0.2,0.9,0.2H15.2z"/>
	<path d="M72,116.8h1.4v-8.9H72V116.8z M67.9,107.1c-0.1,0-0.2,0-0.3,0c-0.1,0-0.2,0-0.3,0c-0.1,0-0.3,0-0.4,0.1
		c-0.1,0-0.3,0.1-0.4,0.2c-0.1,0.1-0.2,0.2-0.2,0.3c-0.1,0.1-0.1,0.3-0.1,0.5c0,0.1,0,0.3,0.1,0.4c0.1,0.1,0.1,0.3,0.3,0.4h-0.6v0.7
		h2v-0.7h-0.3c-0.1,0-0.2,0-0.2,0c-0.1,0-0.2-0.1-0.2-0.1c-0.1-0.1-0.1-0.1-0.2-0.2c0-0.1-0.1-0.2-0.1-0.3c0-0.1,0-0.3,0.1-0.4
		c0.1-0.1,0.2-0.1,0.3-0.1c0.1,0,0.2,0,0.2,0c0.1,0,0.2,0,0.2,0.1L67.9,107.1z M69.1,107.9v7.7h-1.5V110h-1.4v5.6h-2.1v1.2h6.4v-8.9
		H69.1z M61.8,109c0-0.1-0.1-0.1-0.1-0.2c-0.1-0.1-0.1-0.1-0.2-0.1c-0.1,0-0.2-0.1-0.3-0.1c-0.1,0-0.2,0-0.3,0.1
		c-0.1,0-0.2,0.1-0.2,0.1c-0.1,0.1-0.1,0.1-0.1,0.2c0,0.1-0.1,0.2-0.1,0.3c0,0.1,0,0.2,0.1,0.3c0,0.1,0.1,0.2,0.1,0.2
		c0.1,0.1,0.1,0.1,0.2,0.1c0.1,0,0.2,0.1,0.3,0.1c0.1,0,0.2,0,0.3-0.1c0.1,0,0.1-0.1,0.2-0.1c0.1-0.1,0.1-0.1,0.1-0.2
		c0-0.1,0.1-0.2,0.1-0.3C61.8,109.2,61.8,109.1,61.8,109 M61.8,115.6c-0.3,0-0.5,0-0.7-0.1c-0.2-0.1-0.3-0.2-0.4-0.4
		c-0.1-0.1-0.2-0.3-0.2-0.5c0-0.2-0.1-0.4-0.1-0.6c0-0.3,0-0.5,0.1-0.6c0.1-0.2,0.1-0.3,0.2-0.4c0.1-0.1,0.2-0.2,0.3-0.2
		c0.1,0,0.2-0.1,0.4-0.1c0.1,0,0.3,0,0.4,0c0.2,0,0.3,0.1,0.5,0.1l0.2-1.3c-0.1,0-0.2-0.1-0.3-0.1c-0.1,0-0.2-0.1-0.3-0.1
		c-0.1,0-0.2,0-0.3,0c-0.1,0-0.2,0-0.3,0c-0.4,0-0.7,0.1-1,0.2c-0.3,0.1-0.5,0.3-0.7,0.6c-0.2,0.2-0.4,0.5-0.5,0.9
		c-0.1,0.3-0.2,0.7-0.2,1.1c0,0.1,0,0.2,0,0.3c0,0.1,0,0.2,0.1,0.4c0,0.1,0.1,0.3,0.1,0.4c0.1,0.1,0.1,0.3,0.2,0.4h-1.3
		c-0.1,0-0.2,0-0.2,0c-0.1,0-0.1,0-0.1,0.1c0,0,0,0.1-0.1,0.2c0,0.1,0,0.1,0,0.2v0.2c0,0.1,0,0.2,0,0.3c0,0.1,0,0.1,0.1,0.2
		c0,0,0.1,0.1,0.1,0.1c0.1,0,0.1,0,0.2,0H63v-1.2H61.8z M55.5,109c0-0.1-0.1-0.1-0.1-0.2c-0.1-0.1-0.1-0.1-0.2-0.1
		c-0.1,0-0.2-0.1-0.3-0.1c-0.1,0-0.2,0-0.3,0.1c-0.1,0-0.2,0.1-0.2,0.1c-0.1,0.1-0.1,0.1-0.1,0.2c0,0.1-0.1,0.2-0.1,0.3
		c0,0.1,0,0.2,0.1,0.3c0,0.1,0.1,0.2,0.1,0.2c0.1,0.1,0.1,0.1,0.2,0.1c0.1,0,0.2,0.1,0.3,0.1c0.1,0,0.2,0,0.3-0.1
		c0.1,0,0.1-0.1,0.2-0.1c0.1-0.1,0.1-0.1,0.1-0.2c0-0.1,0.1-0.2,0.1-0.3C55.6,109.2,55.6,109.1,55.5,109 M54.7,116.8
		c0.4,0,0.7-0.1,1-0.2c0.3-0.1,0.5-0.3,0.7-0.5c0.1,0.1,0.2,0.2,0.3,0.2c0.1,0.1,0.2,0.1,0.4,0.2c0.1,0.1,0.3,0.1,0.4,0.1
		c0.2,0,0.3,0.1,0.5,0.1h0.1c0.1,0,0.2,0,0.2,0c0.1,0,0.1,0,0.1-0.1c0,0,0-0.1,0.1-0.2c0-0.1,0-0.2,0-0.3V116c0-0.1,0-0.2,0-0.2
		c0-0.1,0-0.1,0-0.2c0,0-0.1-0.1-0.1-0.1c-0.1,0-0.1,0-0.2,0h0c-0.2,0-0.4,0-0.6-0.1c-0.2,0-0.4-0.1-0.6-0.2c0,0,0-0.1,0-0.2
		c0-0.1,0-0.1,0-0.2c0-0.1,0-0.1,0-0.2c0-0.1,0-0.1,0-0.2c0-0.6-0.2-1.2-0.5-1.8c-0.4-0.6-0.9-1.3-1.5-2l-1.1,1.1
		c0.2,0.2,0.4,0.4,0.6,0.7c0.2,0.2,0.4,0.5,0.6,0.8c0.2,0.3,0.3,0.5,0.4,0.8c0.1,0.3,0.2,0.5,0.2,0.8c0,0.1,0,0.2,0,0.2
		c0,0.1-0.1,0.2-0.1,0.3c-0.1,0.1-0.2,0.1-0.3,0.2c-0.1,0.1-0.3,0.1-0.5,0.1h-2v1.2H54.7z M51.2,118.8c0,0.1,0.1,0.2,0.1,0.2
		c0.1,0.1,0.1,0.1,0.2,0.1c0.1,0,0.2,0.1,0.3,0.1c0.1,0,0.2,0,0.3-0.1c0.1,0,0.2-0.1,0.2-0.1c0.1-0.1,0.1-0.1,0.1-0.2
		c0-0.1,0.1-0.2,0.1-0.3c0-0.1,0-0.2-0.1-0.3c0-0.1-0.1-0.2-0.1-0.2c-0.1-0.1-0.1-0.1-0.2-0.1c-0.1,0-0.2-0.1-0.3-0.1
		c-0.1,0-0.2,0-0.3,0.1c-0.1,0-0.2,0.1-0.2,0.1c-0.1,0.1-0.1,0.1-0.1,0.2c0,0.1-0.1,0.2-0.1,0.3C51.1,118.7,51.2,118.8,51.2,118.8
		 M49.5,118.8c0,0.1,0.1,0.2,0.1,0.2c0.1,0.1,0.1,0.1,0.2,0.1c0.1,0,0.2,0.1,0.3,0.1c0.1,0,0.2,0,0.3-0.1c0.1,0,0.2-0.1,0.2-0.1
		c0.1-0.1,0.1-0.1,0.1-0.2c0-0.1,0.1-0.2,0.1-0.3c0-0.1,0-0.2-0.1-0.3c0-0.1-0.1-0.2-0.1-0.2c-0.1-0.1-0.1-0.1-0.2-0.1
		c-0.1,0-0.2-0.1-0.3-0.1c-0.1,0-0.2,0-0.3,0.1c-0.1,0-0.1,0.1-0.2,0.1c-0.1,0.1-0.1,0.1-0.1,0.2c0,0.1,0,0.2,0,0.3
		C49.4,118.7,49.5,118.8,49.5,118.8 M51.9,116.8v-5.2h-1.4v4h-1.3c-0.1,0-0.2,0-0.2,0c-0.1,0-0.1,0-0.1,0.1c0,0,0,0.1,0,0.2
		c0,0.1,0,0.1,0,0.2v0.2c0,0.1,0,0.2,0,0.3c0,0.1,0,0.1,0.1,0.2c0,0,0.1,0.1,0.1,0.1c0.1,0,0.1,0,0.2,0H51.9z M47.1,109.2
		c0,0.1,0.1,0.2,0.1,0.2c0.1,0.1,0.1,0.1,0.2,0.1c0.1,0,0.2,0.1,0.3,0.1c0.1,0,0.2,0,0.3-0.1c0.1,0,0.1-0.1,0.2-0.1
		c0.1-0.1,0.1-0.1,0.1-0.2c0-0.1,0.1-0.2,0.1-0.3c0-0.1,0-0.2-0.1-0.3c0-0.1-0.1-0.2-0.1-0.2c-0.1-0.1-0.1-0.1-0.2-0.1
		c-0.1,0-0.2-0.1-0.3-0.1c-0.1,0-0.2,0-0.3,0.1c-0.1,0-0.2,0.1-0.2,0.1c-0.1,0.1-0.1,0.1-0.1,0.2c0,0.1-0.1,0.2-0.1,0.3
		C47,109.1,47,109.1,47.1,109.2 M45.4,109.2c0,0.1,0.1,0.2,0.1,0.2c0.1,0.1,0.1,0.1,0.2,0.1c0.1,0,0.2,0.1,0.3,0.1
		c0.1,0,0.2,0,0.3-0.1c0.1,0,0.2-0.1,0.2-0.1c0.1-0.1,0.1-0.1,0.1-0.2c0-0.1,0.1-0.2,0.1-0.3c0-0.1,0-0.2-0.1-0.3
		c0-0.1-0.1-0.2-0.1-0.2c-0.1-0.1-0.1-0.1-0.2-0.1c-0.1,0-0.2-0.1-0.3-0.1c-0.1,0-0.2,0-0.3,0.1c-0.1,0-0.1,0.1-0.2,0.1
		c-0.1,0.1-0.1,0.1-0.1,0.2c0,0.1-0.1,0.2-0.1,0.3C45.3,109.1,45.3,109.1,45.4,109.2 M48.4,110.5H47v0.7c-0.2,0.1-0.4,0.1-0.7,0.2
		c-0.2,0.1-0.5,0.2-0.7,0.3c-0.2,0.1-0.5,0.3-0.7,0.4c-0.2,0.2-0.4,0.4-0.6,0.6c-0.2,0.2-0.3,0.5-0.4,0.7c-0.1,0.3-0.2,0.6-0.2,0.9
		c0,0.3,0.1,0.6,0.2,0.9c0.1,0.2,0.3,0.4,0.5,0.6c0.2,0.2,0.4,0.3,0.7,0.4c0.2,0.1,0.5,0.1,0.7,0.1c0.2,0,0.5,0,0.7-0.1
		c0.2-0.1,0.4-0.2,0.6-0.3c0,0.1,0.1,0.2,0.2,0.3c0.1,0.1,0.2,0.2,0.3,0.3c0.1,0.1,0.3,0.1,0.4,0.2c0.2,0,0.4,0.1,0.6,0.1h0.6
		c0.1,0,0.2,0,0.2,0c0.1,0,0.1,0,0.1-0.1c0,0,0.1-0.1,0.1-0.2c0-0.1,0-0.2,0-0.3V116c0-0.1,0-0.2,0-0.2c0-0.1,0-0.1,0-0.2
		c0,0-0.1-0.1-0.1-0.1c-0.1,0-0.1,0-0.2,0h-0.4c-0.1,0-0.2,0-0.2,0c-0.1,0-0.1-0.1-0.1-0.1c0-0.1-0.1-0.1-0.1-0.2c0-0.1,0-0.2,0-0.4
		V110.5z M47,114.8c-0.1,0-0.1,0.1-0.2,0.1c-0.1,0-0.2,0.1-0.2,0.1c-0.1,0-0.2,0.1-0.3,0.1c-0.1,0-0.2,0-0.2,0c-0.1,0-0.2,0-0.3-0.1
		c-0.1,0-0.2-0.1-0.3-0.2c-0.1-0.1-0.2-0.2-0.2-0.3c-0.1-0.1-0.1-0.3-0.1-0.4c0-0.2,0-0.4,0.1-0.6c0.1-0.2,0.2-0.3,0.4-0.5
		c0.2-0.1,0.4-0.3,0.6-0.4c0.2-0.1,0.5-0.2,0.8-0.2V114.8z M36,119.5c0.6-0.1,1.1-0.2,1.6-0.3c0.5-0.2,0.9-0.4,1.2-0.7
		c0.3-0.3,0.6-0.7,0.8-1.2c0.2-0.5,0.3-1.1,0.3-1.8v-1.1c0-0.4,0-0.8-0.1-1.1c-0.1-0.3-0.2-0.6-0.3-0.8c-0.1-0.2-0.2-0.4-0.4-0.6
		c-0.1-0.1-0.3-0.3-0.5-0.4c-0.2-0.1-0.3-0.1-0.5-0.2c-0.2,0-0.3-0.1-0.5-0.1c-0.3,0-0.7,0.1-1,0.2c-0.3,0.1-0.6,0.3-0.8,0.6
		c-0.2,0.3-0.4,0.6-0.5,0.9c-0.1,0.4-0.2,0.7-0.2,1.2c0,0.3,0,0.6,0.1,0.9c0.1,0.3,0.2,0.6,0.4,0.8c0.2,0.2,0.4,0.4,0.7,0.6
		c0.3,0.2,0.7,0.2,1.1,0.2c0.1,0,0.2,0,0.3,0c0.1,0,0.3,0,0.4-0.1c-0.1,0.2-0.2,0.3-0.3,0.5c-0.1,0.1-0.3,0.3-0.5,0.4
		c-0.2,0.1-0.4,0.2-0.7,0.3c-0.3,0.1-0.6,0.2-1,0.2L36,119.5z M37.3,115.5c-0.2-0.1-0.3-0.2-0.4-0.3c-0.1-0.1-0.2-0.3-0.2-0.5
		c0-0.2-0.1-0.4-0.1-0.6c0-0.2,0-0.4,0.1-0.6c0-0.2,0.1-0.3,0.2-0.5c0.1-0.1,0.2-0.2,0.3-0.3c0.1-0.1,0.3-0.1,0.4-0.1
		c0.1,0,0.3,0,0.4,0.1c0.1,0.1,0.2,0.2,0.3,0.4c0.1,0.2,0.1,0.4,0.2,0.7c0,0.3,0.1,0.6,0.1,1.1v0.6c-0.1,0-0.2,0.1-0.3,0.1
		c-0.1,0-0.3,0-0.4,0C37.6,115.6,37.4,115.5,37.3,115.5 M32.7,116.8H34v-8.9h-1.4V116.8z M31.3,116.8v-8.9h-1.4v7.7h-1.2
		c-0.1,0-0.2,0-0.2,0c-0.1,0-0.1,0-0.1,0.1c0,0,0,0.1-0.1,0.2c0,0.1,0,0.1,0,0.2v0.2c0,0.1,0,0.2,0,0.3c0,0.1,0,0.1,0.1,0.2
		c0,0,0.1,0.1,0.1,0.1c0.1,0,0.1,0,0.2,0H31.3z M27.6,109c0-0.1-0.1-0.1-0.1-0.2c-0.1-0.1-0.1-0.1-0.2-0.1c-0.1,0-0.2-0.1-0.3-0.1
		c-0.1,0-0.2,0-0.3,0.1c-0.1,0-0.2,0.1-0.2,0.1c-0.1,0.1-0.1,0.1-0.1,0.2c0,0.1-0.1,0.2-0.1,0.3c0,0.1,0,0.2,0.1,0.3
		c0,0.1,0.1,0.2,0.1,0.2c0.1,0.1,0.1,0.1,0.2,0.1c0.1,0,0.2,0.1,0.3,0.1c0.1,0,0.2,0,0.3-0.1c0.1,0,0.1-0.1,0.2-0.1
		c0.1-0.1,0.1-0.1,0.1-0.2c0-0.1,0.1-0.2,0.1-0.3C27.7,109.2,27.7,109.1,27.6,109 M25.2,119.4c0.4-0.1,0.7-0.2,1-0.3
		c0.3-0.1,0.5-0.3,0.8-0.5c0.2-0.2,0.4-0.5,0.5-0.7c0.1-0.3,0.2-0.6,0.3-1h1.1c0.1,0,0.2,0,0.2,0c0.1,0,0.1,0,0.1-0.1
		c0,0,0.1-0.1,0.1-0.2c0-0.1,0-0.2,0-0.3V116c0-0.1,0-0.2,0-0.2c0-0.1,0-0.1,0-0.2c0,0-0.1-0.1-0.1-0.1c-0.1,0-0.1,0-0.2,0h-1v-4
		h-1.4v4.4c0,0.3,0,0.5-0.1,0.8c0,0.2-0.1,0.4-0.2,0.6c-0.1,0.2-0.3,0.3-0.5,0.4c-0.2,0.1-0.5,0.2-0.8,0.3L25.2,119.4z M21.7,119.4
		c0.5-0.1,0.9-0.2,1.2-0.4c0.3-0.2,0.6-0.4,0.8-0.7c0.2-0.3,0.4-0.7,0.5-1.1c0.1-0.4,0.1-1,0.1-1.6v-4h-1.4v4.4c0,0.3,0,0.5-0.1,0.8
		c0,0.2-0.1,0.4-0.2,0.6c-0.1,0.2-0.3,0.3-0.5,0.4c-0.2,0.1-0.5,0.2-0.8,0.3L21.7,119.4z M19.5,116.8h1.4v-8.9h-1.4V116.8z
		 M17.2,115.6c-0.3,0-0.5,0-0.7-0.1c-0.2-0.1-0.3-0.2-0.4-0.4c-0.1-0.1-0.2-0.3-0.2-0.5c-0.1-0.2-0.1-0.4-0.1-0.6
		c0-0.3,0-0.5,0.1-0.6c0.1-0.2,0.1-0.3,0.2-0.4c0.1-0.1,0.2-0.2,0.3-0.2c0.1,0,0.2-0.1,0.4-0.1c0.1,0,0.3,0,0.4,0
		c0.2,0,0.3,0.1,0.5,0.1l0.2-1.3c-0.1,0-0.2-0.1-0.3-0.1c-0.1,0-0.2-0.1-0.3-0.1c-0.1,0-0.2,0-0.3,0c-0.1,0-0.2,0-0.3,0
		c-0.4,0-0.7,0.1-1,0.2c-0.3,0.1-0.5,0.3-0.7,0.6c-0.2,0.2-0.4,0.5-0.5,0.9c-0.1,0.3-0.2,0.7-0.2,1.1c0,0.1,0,0.2,0,0.3
		c0,0.1,0,0.2,0.1,0.4c0,0.1,0.1,0.3,0.1,0.4c0.1,0.1,0.1,0.3,0.2,0.4h-1.3c-0.1,0-0.2,0-0.2,0c-0.1,0-0.1,0-0.1,0.1
		c0,0,0,0.1,0,0.2c0,0.1,0,0.1,0,0.2v0.2c0,0.1,0,0.2,0,0.3c0,0.1,0,0.1,0.1,0.2c0,0,0.1,0.1,0.1,0.1c0.1,0,0.1,0,0.2,0h4.8v-1.2
		H17.2z M11.5,109.2c0,0.1,0.1,0.2,0.1,0.2c0.1,0.1,0.1,0.1,0.2,0.1c0.1,0,0.2,0.1,0.3,0.1s0.2,0,0.3-0.1c0.1,0,0.2-0.1,0.2-0.1
		c0.1-0.1,0.1-0.1,0.1-0.2c0-0.1,0.1-0.2,0.1-0.3c0-0.1,0-0.2-0.1-0.3c0-0.1-0.1-0.2-0.1-0.2c-0.1-0.1-0.1-0.1-0.2-0.1
		c-0.1,0-0.2-0.1-0.3-0.1s-0.2,0-0.3,0.1c-0.1,0-0.2,0.1-0.2,0.1c-0.1,0.1-0.1,0.1-0.1,0.2c0,0.1-0.1,0.2-0.1,0.3
		C11.4,109.1,11.4,109.1,11.5,109.2 M9.8,109.2c0,0.1,0.1,0.2,0.1,0.2c0.1,0.1,0.1,0.1,0.2,0.1c0.1,0,0.2,0.1,0.3,0.1
		c0.1,0,0.2,0,0.3-0.1c0.1,0,0.2-0.1,0.2-0.1c0.1-0.1,0.1-0.1,0.1-0.2c0-0.1,0.1-0.2,0.1-0.3c0-0.1,0-0.2-0.1-0.3
		c0-0.1-0.1-0.2-0.1-0.2c-0.1-0.1-0.1-0.1-0.2-0.1c-0.1,0-0.2-0.1-0.3-0.1c-0.1,0-0.2,0-0.3,0.1c-0.1,0-0.1,0.1-0.2,0.1
		c-0.1,0.1-0.1,0.1-0.1,0.2c0,0.1-0.1,0.2-0.1,0.3C9.7,109.1,9.7,109.1,9.8,109.2 M12.8,110.5h-1.4v0.7c-0.2,0.1-0.4,0.1-0.7,0.2
		c-0.2,0.1-0.5,0.2-0.7,0.3c-0.2,0.1-0.5,0.3-0.7,0.4c-0.2,0.2-0.4,0.4-0.6,0.6c-0.2,0.2-0.3,0.5-0.4,0.7c-0.1,0.3-0.2,0.6-0.2,0.9
		c0,0.3,0.1,0.6,0.2,0.9c0.1,0.2,0.3,0.4,0.5,0.6c0.2,0.2,0.4,0.3,0.7,0.4c0.2,0.1,0.5,0.1,0.7,0.1c0.2,0,0.5,0,0.7-0.1
		c0.2-0.1,0.4-0.2,0.6-0.3c0,0.1,0.1,0.2,0.2,0.3c0.1,0.1,0.2,0.2,0.3,0.3c0.1,0.1,0.3,0.1,0.4,0.2c0.2,0,0.4,0.1,0.6,0.1h0.6
		c0.1,0,0.2,0,0.2,0c0.1,0,0.1,0,0.1-0.1c0,0,0.1-0.1,0.1-0.2c0-0.1,0-0.2,0-0.3V116c0-0.1,0-0.2,0-0.2c0-0.1,0-0.1-0.1-0.2
		c0,0-0.1-0.1-0.1-0.1c-0.1,0-0.1,0-0.2,0h-0.4c-0.1,0-0.2,0-0.2,0c-0.1,0-0.1-0.1-0.1-0.1c0-0.1-0.1-0.1-0.1-0.2c0-0.1,0-0.2,0-0.4
		V110.5z M11.4,114.8c-0.1,0-0.1,0.1-0.2,0.1c-0.1,0-0.2,0.1-0.2,0.1c-0.1,0-0.2,0.1-0.3,0.1c-0.1,0-0.2,0-0.2,0
		c-0.1,0-0.2,0-0.3-0.1c-0.1,0-0.2-0.1-0.3-0.2c-0.1-0.1-0.2-0.2-0.2-0.3c-0.1-0.1-0.1-0.3-0.1-0.4c0-0.2,0-0.4,0.1-0.6
		c0.1-0.2,0.2-0.3,0.4-0.5c0.2-0.1,0.4-0.3,0.6-0.4c0.2-0.1,0.5-0.2,0.8-0.2V114.8z"/>
	<path d="M71.9,101.7c-0.2,0.2-0.5,0.3-0.8,0.3c-0.1,0-0.2,0-0.4,0c-0.1,0-0.2-0.1-0.4-0.1c-0.1,0-0.2-0.1-0.3-0.2
		c-0.1-0.1-0.2-0.1-0.2-0.2c0-0.3,0.1-0.6,0.2-0.9c0.1-0.3,0.2-0.5,0.3-0.8c0.1-0.2,0.2-0.4,0.4-0.5c0.1-0.1,0.3-0.2,0.5-0.2
		c0.2,0,0.3,0,0.4,0.1c0.1,0.1,0.2,0.2,0.3,0.4c0.1,0.1,0.1,0.3,0.2,0.5c0,0.2,0.1,0.4,0.1,0.6C72.2,101.2,72.1,101.5,71.9,101.7
		 M72.3,103.1c0.3-0.1,0.5-0.3,0.7-0.6c0.2-0.2,0.3-0.5,0.4-0.8c0.1-0.3,0.1-0.6,0.1-0.9c0-0.2,0-0.4-0.1-0.6c0-0.2-0.1-0.4-0.2-0.6
		c-0.1-0.2-0.2-0.4-0.3-0.6c-0.1-0.2-0.3-0.3-0.4-0.5c-0.2-0.1-0.4-0.3-0.6-0.3c-0.2-0.1-0.4-0.1-0.7-0.1c-0.2,0-0.4,0-0.6,0.1
		c-0.2,0.1-0.5,0.2-0.7,0.5c-0.2,0.2-0.5,0.6-0.7,1c-0.2,0.4-0.4,1-0.6,1.7c0,0.2-0.1,0.3-0.1,0.4c0,0.1-0.1,0.2-0.2,0.3
		c-0.1,0.1-0.1,0.1-0.2,0.1c-0.1,0-0.1,0-0.2,0h-0.2c-0.1,0-0.2,0-0.2,0c-0.1,0-0.1,0-0.1,0.1c0,0,0,0.1-0.1,0.2c0,0.1,0,0.1,0,0.2
		v0.2c0,0.1,0,0.2,0,0.3c0,0.1,0,0.1,0.1,0.2c0,0,0.1,0.1,0.1,0.1c0.1,0,0.1,0,0.2,0h0.4c0.3,0,0.5-0.1,0.8-0.2
		c0.2-0.1,0.4-0.3,0.6-0.6c0.1,0.1,0.2,0.2,0.3,0.3c0.1,0.1,0.2,0.2,0.4,0.3c0.2,0.1,0.3,0.1,0.5,0.2c0.2,0.1,0.4,0.1,0.6,0.1
		C71.7,103.3,72,103.2,72.3,103.1 M66.5,95.4c0-0.1-0.1-0.2-0.1-0.2c-0.1-0.1-0.1-0.1-0.2-0.1c-0.1,0-0.2-0.1-0.3-0.1
		c-0.1,0-0.2,0-0.3,0.1c-0.1,0-0.2,0.1-0.2,0.1c-0.1,0.1-0.1,0.1-0.1,0.2c0,0.1-0.1,0.2-0.1,0.3c0,0.1,0,0.2,0.1,0.3
		c0,0.1,0.1,0.2,0.1,0.2c0.1,0.1,0.1,0.1,0.2,0.1c0.1,0,0.2,0.1,0.3,0.1c0.1,0,0.2,0,0.3-0.1c0.1,0,0.1-0.1,0.2-0.1
		c0.1-0.1,0.1-0.1,0.1-0.2c0-0.1,0.1-0.2,0.1-0.3C66.6,95.6,66.5,95.5,66.5,95.4 M66.7,98h-1.4v3.1c0,0.2,0,0.3,0,0.4
		c0,0.1-0.1,0.2-0.1,0.3c-0.1,0.1-0.1,0.1-0.2,0.1c-0.1,0-0.2,0-0.3,0h-0.6c-0.1,0-0.2,0-0.2,0c-0.1,0-0.1,0-0.1,0.1
		c0,0,0,0.1-0.1,0.2c0,0.1,0,0.1,0,0.2v0.2c0,0.1,0,0.2,0,0.3c0,0.1,0,0.1,0.1,0.2c0,0,0.1,0.1,0.1,0.1c0.1,0,0.1,0,0.2,0h1
		c0.3,0,0.5,0,0.7-0.1c0.2-0.1,0.3-0.2,0.5-0.4c0.2,0.1,0.4,0.3,0.6,0.4c0.2,0.1,0.5,0.1,0.9,0.1h0.1c0.1,0,0.2,0,0.2,0
		c0.1,0,0.1,0,0.1-0.1c0,0,0.1-0.1,0.1-0.2c0-0.1,0-0.2,0-0.3v-0.2c0-0.1,0-0.2,0-0.2c0-0.1,0-0.1,0-0.2c0,0-0.1-0.1-0.1-0.1
		c-0.1,0-0.1,0-0.2,0h-0.1c-0.2,0-0.4,0-0.6-0.1c-0.2,0-0.4-0.1-0.5-0.2c0-0.1,0-0.1,0-0.2c0-0.1,0-0.1,0-0.2V98z M61.4,95.4
		c0-0.1-0.1-0.2-0.1-0.2c-0.1-0.1-0.1-0.1-0.2-0.1c-0.1,0-0.2-0.1-0.2-0.1c-0.1,0-0.2,0-0.3,0.1c-0.1,0-0.2,0.1-0.2,0.1
		c-0.1,0.1-0.1,0.1-0.1,0.2c0,0.1-0.1,0.2-0.1,0.3c0,0.1,0,0.2,0.1,0.3c0,0.1,0.1,0.2,0.1,0.2c0.1,0.1,0.1,0.1,0.2,0.1
		c0.1,0,0.2,0.1,0.3,0.1c0.1,0,0.2,0,0.2-0.1c0.1,0,0.2-0.1,0.2-0.1c0.1-0.1,0.1-0.1,0.1-0.2c0-0.1,0.1-0.2,0.1-0.3
		C61.5,95.6,61.5,95.5,61.4,95.4 M61.9,102h-3.5c0.1-0.5,0.2-0.9,0.4-1.3c0.2-0.4,0.4-0.7,0.6-1c0.2-0.3,0.4-0.5,0.7-0.7
		c0.2-0.2,0.5-0.2,0.7-0.2c0.2,0,0.3,0,0.4,0.1c0.1,0.1,0.3,0.2,0.4,0.3c0.1,0.2,0.2,0.4,0.3,0.6c0.1,0.3,0.1,0.6,0.1,1V102z
		 M63.3,102v-1.1c0-0.5,0-0.9-0.1-1.3c-0.1-0.4-0.2-0.8-0.4-1c-0.2-0.3-0.4-0.5-0.7-0.7c-0.3-0.2-0.6-0.3-1.1-0.3
		c-0.4,0-0.8,0.1-1.2,0.3c-0.3,0.2-0.7,0.4-1,0.7v-4.3h-1.4v6.4c0,0.1-0.1,0.2-0.1,0.3c0,0.1-0.1,0.2-0.1,0.4c0,0.1-0.1,0.2-0.1,0.4
		c0,0.1-0.1,0.2-0.1,0.3h-1.1c-0.1,0-0.2,0-0.2,0c-0.1,0-0.1,0-0.1,0.1c0,0,0,0.1-0.1,0.2c0,0.1,0,0.1,0,0.2v0.2c0,0.1,0,0.2,0,0.3
		c0,0.1,0,0.1,0.1,0.2c0,0,0.1,0.1,0.1,0.1c0.1,0,0.1,0,0.2,0h8.2c0.1,0,0.2,0,0.2,0c0.1,0,0.1,0,0.1-0.1c0,0,0.1-0.1,0.1-0.2
		c0-0.1,0-0.2,0-0.3v-0.2c0-0.1,0-0.2,0-0.2c0-0.1,0-0.1-0.1-0.2c0,0-0.1-0.1-0.1-0.1c-0.1,0-0.1,0-0.2,0H63.3z M53.1,101.7
		c-0.2,0.2-0.5,0.3-0.8,0.3c-0.1,0-0.2,0-0.4,0c-0.1,0-0.2-0.1-0.4-0.1c-0.1,0-0.2-0.1-0.3-0.2c-0.1-0.1-0.2-0.1-0.2-0.2
		c0-0.3,0.1-0.6,0.2-0.9c0.1-0.3,0.2-0.5,0.3-0.8c0.1-0.2,0.2-0.4,0.4-0.5c0.1-0.1,0.3-0.2,0.5-0.2c0.2,0,0.3,0,0.5,0.2
		c0.1,0.1,0.2,0.2,0.3,0.4c0.1,0.2,0.1,0.3,0.2,0.5c0,0.2,0.1,0.4,0.1,0.5C53.4,101.2,53.3,101.5,53.1,101.7 M53.4,103.1
		c0.3-0.1,0.5-0.3,0.7-0.6c0.1,0.1,0.2,0.2,0.3,0.3c0.1,0.1,0.2,0.2,0.4,0.2c0.1,0.1,0.3,0.1,0.5,0.2c0.2,0,0.4,0.1,0.6,0.1h0.1
		c0.1,0,0.2,0,0.2,0c0.1,0,0.1,0,0.1-0.1c0,0,0-0.1,0.1-0.2c0-0.1,0-0.2,0-0.3v-0.2c0-0.1,0-0.2,0-0.2c0-0.1,0-0.1,0-0.2
		c0,0-0.1-0.1-0.1-0.1c-0.1,0-0.1,0-0.2,0h0c-0.2,0-0.5,0-0.7-0.1c-0.2-0.1-0.4-0.1-0.6-0.3c0-0.1,0-0.1,0-0.2c0-0.1,0-0.2,0-0.2
		c0-0.1,0-0.2,0-0.2c0-0.1,0-0.1,0-0.2c0-0.2,0-0.4-0.1-0.6c0-0.2-0.1-0.4-0.2-0.6c-0.1-0.2-0.2-0.4-0.3-0.6
		c-0.1-0.2-0.3-0.3-0.4-0.5c-0.2-0.1-0.4-0.3-0.6-0.3c-0.2-0.1-0.4-0.1-0.7-0.1c-0.1,0-0.2,0-0.4,0c-0.1,0-0.3,0.1-0.4,0.2
		c-0.2,0.1-0.3,0.2-0.5,0.4c-0.2,0.1-0.3,0.3-0.5,0.6c-0.1,0.2-0.3,0.5-0.4,0.9c-0.1,0.3-0.2,0.7-0.3,1.2c-0.1,0.3-0.2,0.5-0.3,0.6
		c-0.1,0.1-0.3,0.2-0.4,0.2h-0.2c-0.1,0-0.2,0-0.2,0c-0.1,0-0.1,0-0.1,0.1c0,0,0,0.1,0,0.2c0,0.1,0,0.1,0,0.2v0.2c0,0.1,0,0.2,0,0.3
		c0,0.1,0,0.1,0.1,0.2c0,0,0.1,0.1,0.1,0.1c0.1,0,0.1,0,0.2,0h0.4c0.6,0,1-0.3,1.3-0.8c0.1,0.1,0.2,0.2,0.3,0.3
		c0.1,0.1,0.2,0.2,0.4,0.3c0.1,0.1,0.3,0.1,0.5,0.2s0.4,0.1,0.6,0.1C52.9,103.3,53.2,103.2,53.4,103.1 M46.8,95.6
		c0,0.1,0.1,0.2,0.1,0.2c0.1,0.1,0.1,0.1,0.2,0.1c0.1,0,0.2,0.1,0.3,0.1c0.1,0,0.2,0,0.3-0.1c0.1,0,0.1-0.1,0.2-0.1
		c0.1-0.1,0.1-0.1,0.1-0.2c0-0.1,0.1-0.2,0.1-0.3c0-0.1,0-0.2-0.1-0.3c0-0.1-0.1-0.2-0.1-0.2c-0.1-0.1-0.1-0.1-0.2-0.1
		c-0.1,0-0.2-0.1-0.3-0.1c-0.1,0-0.2,0-0.3,0.1c-0.1,0-0.2,0.1-0.2,0.1c-0.1,0.1-0.1,0.1-0.1,0.2c0,0.1-0.1,0.2-0.1,0.3
		C46.7,95.5,46.7,95.6,46.8,95.6 M45.1,95.6c0,0.1,0.1,0.2,0.1,0.2c0.1,0.1,0.1,0.1,0.2,0.1c0.1,0,0.2,0.1,0.3,0.1
		c0.1,0,0.2,0,0.3-0.1c0.1,0,0.2-0.1,0.2-0.1c0.1-0.1,0.1-0.1,0.1-0.2c0-0.1,0.1-0.2,0.1-0.3c0-0.1,0-0.2-0.1-0.3
		c0-0.1-0.1-0.2-0.1-0.2c-0.1-0.1-0.1-0.1-0.2-0.1c-0.1,0-0.2-0.1-0.3-0.1c-0.1,0-0.2,0-0.3,0.1c-0.1,0-0.1,0.1-0.2,0.1
		c-0.1,0.1-0.1,0.1-0.1,0.2c0,0.1,0,0.2,0,0.3C45,95.5,45,95.6,45.1,95.6 M48.1,97h-1.4v0.7c-0.2,0.1-0.4,0.1-0.7,0.2
		c-0.2,0.1-0.5,0.2-0.7,0.3c-0.2,0.1-0.5,0.3-0.7,0.4c-0.2,0.2-0.4,0.4-0.6,0.6c-0.2,0.2-0.3,0.5-0.4,0.7c-0.1,0.3-0.2,0.6-0.2,0.9
		c0,0.3,0.1,0.6,0.2,0.9c0.1,0.2,0.3,0.4,0.5,0.6c0.2,0.2,0.4,0.3,0.7,0.4c0.2,0.1,0.5,0.1,0.7,0.1c0.2,0,0.5,0,0.7-0.1
		c0.2-0.1,0.4-0.2,0.6-0.3c0,0.1,0.1,0.2,0.2,0.3c0.1,0.1,0.2,0.2,0.3,0.3c0.1,0.1,0.3,0.1,0.4,0.2c0.2,0,0.4,0.1,0.6,0.1h0.6
		c0.1,0,0.2,0,0.2,0c0.1,0,0.1,0,0.1-0.1c0,0,0.1-0.1,0.1-0.2c0-0.1,0-0.2,0-0.3v-0.2c0-0.1,0-0.2,0-0.2c0-0.1,0-0.1,0-0.2
		c0,0-0.1-0.1-0.1-0.1c-0.1,0-0.1,0-0.2,0h-0.4c-0.1,0-0.2,0-0.2,0c-0.1,0-0.1-0.1-0.1-0.1c0-0.1-0.1-0.1-0.1-0.2c0-0.1,0-0.2,0-0.4
		V97z M46.7,101.2c-0.1,0-0.1,0.1-0.2,0.1c-0.1,0-0.2,0.1-0.2,0.1c-0.1,0-0.2,0.1-0.3,0.1c-0.1,0-0.2,0-0.2,0c-0.1,0-0.2,0-0.3-0.1
		c-0.1,0-0.2-0.1-0.3-0.2c-0.1-0.1-0.2-0.2-0.2-0.3c-0.1-0.1-0.1-0.3-0.1-0.4c0-0.2,0-0.4,0.1-0.6c0.1-0.2,0.2-0.3,0.4-0.5
		c0.2-0.1,0.4-0.3,0.6-0.4c0.2-0.1,0.5-0.2,0.8-0.2V101.2z"/>
</g>
<g>
	<path d="M8.2,173.1h4.6v1h-0.6v6l0.8-0.1c0,0.4,0,0.7,0,1l-0.8,0.1v2.1h-1v-1.9c-0.9,0.2-1.9,0.3-2.9,0.6l-0.2-1.1l0.7-0.1v-6.5
		H8.2V173.1z M9.8,175.5h1.4v-1.5H9.8V175.5z M9.8,177.9h1.4v-1.4H9.8V177.9z M11.2,180.2v-1.4H9.8v1.7L11.2,180.2z M13,174.7h2.8
		c0.5-0.8,0.9-1.5,1.3-2.3l1.1,0.4c-0.4,0.6-0.8,1.3-1.2,1.9h1.5v1.1h-2.3v1.4c0,0.1,0,0.2,0,0.3h2.6v1.1h-2.6
		c0.5,1.7,1.1,2.5,2.7,3.4c-0.2,0.4-0.4,0.7-0.7,1.1c-1.4-1-2.2-1.8-2.6-3.3c-0.4,1.3-1.1,2.2-2.6,3.3c-0.2-0.3-0.5-0.7-0.8-1
		c1.7-1.1,2.4-2.1,2.7-3.6h-2.3v-1.1h2.4c0,0,0-0.1,0-0.1l0-1.7H13V174.7z M13.3,172.9l0.9-0.5c0.3,0.5,0.8,1.2,1.2,1.7l-1,0.5
		C14.1,174.1,13.7,173.5,13.3,172.9z"/>
	<path d="M32.6,176.3v0.8h-6.1v-0.7c-0.5,0.3-1.1,0.7-1.8,1c-0.2-0.3-0.4-0.7-0.7-1.1c2.5-1.2,4.1-2.6,5-4l1.4,0.1l-0.3,0.5
		c1.1,1.3,2.6,2.4,4.7,3.3c-0.2,0.3-0.5,0.7-0.7,1.1C33.7,177,33.1,176.6,32.6,176.3z M25.6,178.3h8v4.9h-1.2v-0.6h-5.6v0.6h-1.2
		V178.3z M26.8,181.5h5.6v-2.1h-5.6V181.5z M27.1,176.1h5.2c-1.1-0.7-1.9-1.4-2.6-2.3C28.9,174.6,28.1,175.4,27.1,176.1z"/>
	<path d="M40.8,172.9h9.8v10.4h-1.2v-0.6H42v0.6h-1.2V172.9z M42,181.6h7.4v-7.7H42V181.6z M42.6,174.8h6.1v1h-2.5v1.2h2.4v1h-2.4
		v1.8h1.6c-0.4-0.4-0.7-0.8-1.1-1.1l0.6-0.6c0.4,0.3,0.7,0.7,1.1,1.1l-0.7,0.6h1.1v1h-6.4v-1H45v-1.8h-2.2v-1H45v-1.2h-2.4V174.8z"
		/>
	<path d="M8.1,187.1l0.7-0.2c0.3,0.7,0.5,1.5,0.7,2.2l-0.8,0.3C8.5,188.5,8.3,187.9,8.1,187.1z M10.7,192.6v4.1h-1v-3.8
		c-0.3,0.8-0.7,1.5-1.2,2.3c-0.1-0.5-0.3-1-0.4-1.3c0.7-0.9,1.1-1.8,1.5-3H8.2v-1h1.5V186h1v3.9h1.4v1h-1.4v1.1l0.4-0.4
		c0.4,0.5,0.9,1,1.3,1.5l-0.8,0.7C11.3,193.4,11,193,10.7,192.6z M10.8,189.1c0.3-0.8,0.6-1.4,0.8-2.2l0.7,0.2
		c-0.2,0.7-0.5,1.5-0.8,2.2L10.8,189.1z M14.5,192.2h-0.9v3c0.5-0.2,1.2-0.5,1.8-0.7c0,0.3,0,0.8,0,1.1l-1.9,0.7
		c-0.3,0.1-0.6,0.3-0.8,0.4l-0.6-0.9c0.3-0.2,0.4-0.5,0.4-0.9v-7.9h2.2c-0.1-0.3-0.2-0.7-0.3-1l1.2-0.1c0.1,0.4,0.2,0.8,0.3,1.1h2.2
		v5.1h-2.6c0.2,0.6,0.4,1,0.7,1.4c0.6-0.4,1.3-0.9,1.9-1.3l0.7,0.8c-0.6,0.4-1.3,0.8-2,1.2c0.5,0.5,1.2,0.9,2.1,1.2
		c-0.2,0.4-0.4,0.7-0.6,1.1C16.1,195.6,15.2,194.5,14.5,192.2z M13.6,189.2h3.5v-1.1h-3.5V189.2z M17.1,191.2v-1.1h-3.5v1.1H17.1z"
		/>
	<path d="M29.5,194.9c0,0.4,0,0.7,0,1.1c-1,0.2-2,0.4-2.6,0.5c-0.3,0.1-0.6,0.2-0.9,0.3l-0.6-0.9c0.3-0.2,0.4-0.5,0.4-0.9v-5.3
		c-0.4,0.2-0.7,0.3-1.1,0.5c-0.1-0.3-0.4-0.7-0.6-1c2.6-1,4.2-2,5.2-3.3l1.4,0.1l-0.3,0.4c1.3,1.3,2.6,2,4.7,2.6
		c-0.2,0.3-0.4,0.7-0.5,1.1c-0.4-0.2-0.8-0.3-1.2-0.5v3.7l0.7,0.7c-0.6,0.3-1.2,0.6-1.8,0.9c0.8,0.3,1.5,0.6,2.2,0.8l-0.5,1
		C32.5,196.1,31,195.5,29.5,194.9z M29.9,189.2h2.6c-1.1-0.6-2-1.2-2.9-2.1c-0.8,0.8-1.7,1.5-2.9,2.1h2.5c-0.1-0.3-0.3-0.8-0.4-1.1
		l1.1-0.2c0.2,0.4,0.3,0.8,0.4,1.2L29.9,189.2z M26.9,190.9h5.3v-0.8h-5.3V190.9z M26.9,192.6h5.3v-0.9h-5.3V192.6z M29.5,194.9
		c-0.5-0.2-1-0.4-1.4-0.6l0.5-0.8c0.8,0.3,1.7,0.6,2.5,0.9c0.6-0.3,1.2-0.6,1.7-1h-5.8v2C27.7,195.3,28.5,195.1,29.5,194.9z"/>
	<path d="M42.6,195.7c1.3-0.4,2.4-1,3.3-1.6c-0.9-0.9-1.6-2.1-2.2-3.5c-0.3,2.6-0.9,4.1-2.6,6.1c-0.3-0.3-0.6-0.7-0.9-1
		c1.7-1.9,2.2-3.4,2.4-6.7c0-0.4,0-0.9,0-1.4h-1.8v-1.1h8.3v1.2l-1.2,1.9h2.3v1.1c-0.7,1.4-1.4,2.5-2.4,3.4c0.9,0.6,2,1,3.3,1.3
		l-0.7,1.2c-1.4-0.4-2.6-1-3.6-1.7c-1,0.7-2.1,1.3-3.5,1.9C43.1,196.6,42.8,196,42.6,195.7z M43.8,189.1l0.4-0.3
		c0.7,2,1.5,3.5,2.7,4.5c0.8-0.8,1.5-1.6,1.9-2.6h-2.4v-1.1l1.3-2h-3.9C43.8,188.2,43.8,188.7,43.8,189.1z"/>
	<path d="M13.1,203.8c-0.4,0.7-0.8,1.4-1.4,2h0.5v2.8c0.5-0.2,1.7-0.7,2.5-1c0,0.4,0,0.8,0.1,1.2c-0.8,0.3-2,0.7-2.7,1
		c-0.4,0.1-0.6,0.3-0.9,0.5l-0.7-1c0.3-0.3,0.5-0.6,0.5-1.2v-1.7c-0.7,0.6-1.4,1.2-2.3,1.8c-0.2-0.4-0.4-0.8-0.6-1.2
		c2.5-1.5,3.9-3.1,4.6-5.1H10v1.6H8.8v-2.7H13c0.1-0.4,0.2-0.9,0.2-1.4h1.3c-0.1,0.5-0.2,1-0.3,1.4h4.3v2.4h-1.2V202h-3.4
		c0,0.1,0,0.2-0.1,0.3c0.3,1.2,0.7,2.1,1.2,2.9c0.7-0.5,1.6-1,2.2-1.6l0.8,0.9c-0.7,0.5-1.5,1-2.4,1.6c0.8,0.9,1.9,1.6,3.4,2.3
		c-0.3,0.4-0.6,0.8-0.8,1.1C15.3,207.9,14,206.4,13.1,203.8z"/>
	<path d="M24.3,208.5h3.3v-8.9h1.2v8.9h1.7v-8.9h1.2v8.9H35v1.2H24.3V208.5z M24.5,202l1.1-0.4c0.6,1.5,1.2,3.2,1.7,4.6l-1.1,0.4
		C25.7,205.1,25.1,203.5,24.5,202z M31.8,206.2c0.5-1.1,1.3-3,1.8-4.5l1.1,0.4c-0.6,1.7-1.3,3.3-1.8,4.6L31.8,206.2z"/>
	<path d="M40.3,206c0.3-0.2,0.5-0.4,0.8-0.8c0.3-0.4,0.7-0.9,1-1.4c-0.7,0-1.2,0.1-1.7,0.1l-0.3-1c0.2-0.2,0.4-0.4,0.6-0.8
		c0.5-0.7,1-1.7,1.5-2.7l1.2,0.4c-0.7,1.1-1.4,2.2-2,3c0.4,0,0.9,0,1.3-0.1c0.2-0.3,0.4-0.7,0.6-1l1.1,0.5c-0.9,1.3-1.8,2.6-2.6,3.6
		c0.7-0.1,1.4-0.1,2.1-0.2c0,0.4-0.1,0.7-0.1,1c-1.7,0.1-2.6,0.3-3.3,0.4L40.3,206z M40.2,208.3c1.1-0.1,2.4-0.3,3.9-0.5
		c0,0.3,0,0.6,0,0.9h0.7V200h5.4v8.7h0.8v1.1h-7.3V209c-1.1,0.1-2.3,0.3-3.3,0.5L40.2,208.3z M46,203h3.1v-1.9H46V203z M46,205.9
		h3.1V204H46V205.9z M46,208.8h3.1v-1.9H46V208.8z"/>
	<path d="M56.5,206.1c0.2-0.1,0.4-0.3,0.6-0.6c0.3-0.4,0.7-0.9,1.1-1.5c-0.8,0-1.3,0.1-1.7,0.2l-0.3-1c0.2-0.1,0.4-0.4,0.6-0.8
		c0.5-0.7,1-1.7,1.4-2.8l1.2,0.4c-0.7,1.1-1.3,2.2-2,3.1c0.4,0,0.9,0,1.3,0c0.2-0.3,0.4-0.7,0.6-1l1.1,0.5c-0.8,1.3-1.7,2.5-2.5,3.6
		l2-0.2c0,0.4-0.1,0.7-0.1,1c-1.6,0.1-2.4,0.2-3.2,0.3L56.5,206.1z M56.3,208.5c1.1-0.2,2.4-0.4,3.8-0.6c0,0.4,0,0.8,0,1.1
		c-1.2,0.2-2.5,0.4-3.5,0.6L56.3,208.5z M59.7,209.5c0.8-0.9,1.5-1.8,2.3-3l1.1,0.6c-0.8,1.2-1.6,2.2-2.4,3.2L59.7,209.5z
		 M60.8,200.2h5.7v5.8h-5.7V200.2z M62,204.9h3.3v-3.6H62V204.9z M64,207.1l1-0.6c0.8,1.1,1.5,2,2.2,2.9l-1.1,0.7
		C65.5,209.2,64.8,208.2,64,207.1z"/>
</g>
<g>
	<g>
		<path d="M8.4,20.8h4.2V22H9.9v2.3h2.6v1.2H9.9v3.6H8.4V20.8z"/>
		<path d="M15.9,22.9c1.3,0,2.7,0.7,2.7,3.2c0,2.6-1.5,3.2-2.7,3.2s-2.7-0.6-2.7-3.2C13.2,23.5,14.7,22.9,15.9,22.9z M15.9,28.2
			c1,0,1.2-1.1,1.2-2.1c0-1-0.2-2.1-1.2-2.1c-1,0-1.2,1.1-1.2,2.1C14.8,27.1,15,28.2,15.9,28.2z"/>
		<path d="M22.4,22.9c1.3,0,2.7,0.7,2.7,3.2c0,2.6-1.5,3.2-2.7,3.2s-2.7-0.6-2.7-3.2C19.7,23.5,21.1,22.9,22.4,22.9z M22.4,28.2
			c1,0,1.2-1.1,1.2-2.1c0-1-0.2-2.1-1.2-2.1c-1,0-1.2,1.1-1.2,2.1C21.2,27.1,21.4,28.2,22.4,28.2z"/>
		<path d="M31.3,20.2v7.9c0,0.4,0,0.8,0,1.1H30c0-0.2,0-0.5,0-1h0c-0.2,0.5-0.7,1.1-1.6,1.1c-1.5,0-2.2-1.5-2.2-3.2
			c0-2,0.8-3.2,2.1-3.2c0.9,0,1.4,0.5,1.6,1h0v-3.7H31.3z M28.7,28.2c0.9,0,1.2-0.9,1.2-2.1c0-1.2-0.3-2.1-1.2-2.1
			c-0.8,0-1.1,0.8-1.1,2C27.6,27.4,27.8,28.2,28.7,28.2z"/>
		<path d="M36.1,23.3c0.4-0.2,1-0.5,2-0.5c1.9,0,2.4,0.9,2.4,2.5v2.7c0,0.4,0,0.9,0.1,1.1h-1.3c-0.1-0.2-0.1-0.5-0.1-0.8h0
			c-0.4,0.5-0.8,0.9-1.7,0.9c-1,0-1.8-0.7-1.8-1.8c0-1.7,1.4-2.1,3.2-2.1H39v-0.2c0-0.6-0.3-1.2-1.2-1.2c-0.7,0-1.4,0.4-1.7,0.6
			L36.1,23.3z M39,26.1h-0.1c-1.3,0-2,0.3-2,1.2c0,0.6,0.4,0.9,0.9,0.9c0.9,0,1.2-0.7,1.2-1.8V26.1z"/>
		<path d="M41.8,24c0-0.4,0-0.7,0-1h1.4c0,0.3,0,0.6,0,0.9h0c0.2-0.4,0.6-1,1.6-1c1.4,0,1.8,1,1.8,2.3v4h-1.5v-3.7
			c0-0.9-0.2-1.3-0.9-1.3c-0.8,0-1.1,0.7-1.1,1.5v3.6h-1.5V24z"/>
		<path d="M53.1,20.2v7.9c0,0.4,0,0.8,0,1.1h-1.4c0-0.2,0-0.5,0-1h0c-0.2,0.5-0.7,1.1-1.6,1.1c-1.5,0-2.2-1.5-2.2-3.2
			c0-2,0.8-3.2,2.1-3.2c0.9,0,1.4,0.5,1.6,1h0v-3.7H53.1z M50.4,28.2c0.9,0,1.2-0.9,1.2-2.1c0-1.2-0.3-2.1-1.2-2.1
			c-0.8,0-1.1,0.8-1.1,2C49.4,27.4,49.6,28.2,50.4,28.2z"/>
		<path d="M61.3,27.1h-2.9l-0.6,2h-1.5l2.8-8.4h1.7l2.7,8.4h-1.6L61.3,27.1z M61,26L60,22.1h0L58.8,26H61z"/>
		<path d="M64.4,30.1c0.3,0.2,1,0.5,1.8,0.5c1.4,0,1.6-1,1.6-1.9v-0.6h0c-0.2,0.5-0.7,1-1.6,1c-0.9,0-2.2-0.6-2.2-3.1
			c0-1.7,0.6-3.2,2.2-3.2c0.9,0,1.3,0.5,1.6,1.1h0c0-0.3,0-0.6,0-1h1.3c0,0.3,0,0.6,0,1v4.6c0,1.9-0.6,3.3-2.9,3.3
			c-1,0-1.8-0.3-2.1-0.4L64.4,30.1z M66.6,28.1c0.9,0,1.3-0.7,1.3-2.1c0-1.3-0.5-2-1.2-2c-0.8,0-1.1,0.7-1.1,2
			C65.6,27.5,66.1,28.1,66.6,28.1z"/>
		<path d="M70.7,24c0-0.4,0-0.7,0-1H72c0,0.4,0,0.8,0,1.1h0c0.2-0.5,0.6-1.2,1.6-1.2c0.1,0,0.2,0,0.3,0v1.4c-0.1,0-0.3-0.1-0.4-0.1
			c-0.6,0-1.3,0.4-1.3,1.5v3.4h-1.5V24z"/>
		<path d="M75,20.4h1.5v1.5H75V20.4z M75.1,23h1.5v6.2h-1.5V23z"/>
		<path d="M82.2,29c-0.3,0.1-0.9,0.3-1.5,0.3c-2,0-2.9-1.4-2.9-3.2c0-1.8,0.9-3.2,3-3.2c0.5,0,1,0.1,1.3,0.3l-0.1,1.2
			c-0.3-0.1-0.6-0.3-1-0.3c-1.1,0-1.6,0.8-1.6,2.1c0,1.2,0.6,2,1.7,2c0.4,0,0.9-0.2,1.1-0.3L82.2,29z"/>
		<path d="M88,28.1c0,0.4,0,0.7,0,1h-1.4c0-0.3,0-0.6,0-0.9l0,0l0,0c-0.3,0.5-0.7,1-1.6,1c-1.4,0-1.8-1-1.8-2.3v-4h1.5v3.7
			c0,0.9,0.3,1.3,0.9,1.3c0.8,0,1-0.7,1-1.5V23H88V28.1z"/>
		<path d="M89.5,20.2H91v9h-1.5V20.2z"/>
		<path d="M93,21.7l1.5-0.5V23h1.2v1.1h-1.2v3.2c0,0.7,0.2,0.9,0.7,0.9c0.3,0,0.5-0.1,0.6-0.1V29c-0.2,0.1-0.6,0.2-1,0.2
			c-1.1,0-1.7-0.5-1.7-1.8v-3.4h-1V23h1V21.7z"/>
		<path d="M101.6,28.1c0,0.4,0,0.7,0,1h-1.4c0-0.3,0-0.6,0-0.9l0,0l0,0c-0.3,0.5-0.7,1-1.6,1c-1.4,0-1.8-1-1.8-2.3v-4h1.5v3.7
			c0,0.9,0.3,1.3,0.9,1.3c0.8,0,1-0.7,1-1.5V23h1.5V28.1z"/>
		<path d="M103,24c0-0.4,0-0.7,0-1h1.3c0,0.4,0,0.8,0,1.1h0c0.2-0.5,0.6-1.2,1.6-1.2c0.1,0,0.2,0,0.3,0v1.4c-0.1,0-0.3-0.1-0.4-0.1
			c-0.6,0-1.3,0.4-1.3,1.5v3.4H103V24z"/>
		<path d="M111.6,28.9c-0.3,0.1-1,0.4-1.8,0.4c-2,0-2.9-1.4-2.9-3.1c0-1.8,1-3.3,2.5-3.3c1.3,0,2.5,0.8,2.5,3.3v0.3h-3.6
			c0,1.1,0.4,1.7,1.6,1.7c0.9,0,1.3-0.3,1.6-0.5L111.6,28.9z M110.4,25.5c0-1.1-0.4-1.6-1-1.6c-0.8,0-1.1,0.8-1.1,1.6H110.4z"/>
		<path d="M11.4,34.2c1.7,0,3.3,1.3,3.3,4.3c0,3-1.6,4.3-3.3,4.3c-1.7,0-3.3-1.3-3.3-4.3C8,35.5,9.6,34.2,11.4,34.2z M11.4,41.7
			c1,0,1.8-0.8,1.8-3.1s-0.8-3.1-1.8-3.1s-1.8,0.8-1.8,3.1S10.4,41.7,11.4,41.7z"/>
		<path d="M16,37.6c0-0.4,0-0.7,0-1h1.3c0,0.4,0,0.8,0,1.1h0c0.2-0.5,0.6-1.2,1.6-1.2c0.1,0,0.2,0,0.3,0v1.4c-0.1,0-0.3-0.1-0.4-0.1
			c-0.6,0-1.3,0.4-1.3,1.5v3.4H16V37.6z"/>
		<path d="M20.2,43.7c0.3,0.2,1,0.5,1.8,0.5c1.4,0,1.6-1,1.6-1.9v-0.6h0c-0.2,0.5-0.7,1-1.6,1c-0.9,0-2.2-0.6-2.2-3.1
			c0-1.7,0.6-3.2,2.2-3.2c0.9,0,1.3,0.5,1.6,1.1h0c0-0.3,0-0.6,0-1h1.3c0,0.3,0,0.6,0,1v4.6c0,1.9-0.6,3.3-2.9,3.3
			c-1,0-1.8-0.3-2.1-0.4L20.2,43.7z M22.3,41.6c0.9,0,1.3-0.7,1.3-2.1c0-1.3-0.5-2-1.2-2c-0.8,0-1.1,0.7-1.1,2
			C21.4,41,21.8,41.6,22.3,41.6z"/>
		<path d="M26.7,36.9c0.4-0.2,1-0.5,2-0.5c1.9,0,2.4,0.9,2.4,2.5v2.7c0,0.4,0,0.9,0.1,1.1h-1.3c-0.1-0.2-0.1-0.5-0.1-0.8h0
			c-0.4,0.5-0.8,0.9-1.7,0.9c-1,0-1.8-0.7-1.8-1.8c0-1.7,1.4-2.1,3.2-2.1h0.3v-0.2c0-0.6-0.3-1.2-1.2-1.2c-0.7,0-1.4,0.4-1.7,0.6
			L26.7,36.9z M29.7,39.7h-0.1c-1.3,0-2,0.3-2,1.2c0,0.6,0.4,0.9,0.9,0.9c0.9,0,1.2-0.7,1.2-1.8V39.7z"/>
		<path d="M32.4,37.6c0-0.4,0-0.7,0-1h1.4c0,0.3,0,0.6,0,0.9h0c0.2-0.4,0.6-1,1.6-1c1.4,0,1.8,1,1.8,2.3v4h-1.5V39
			c0-0.9-0.2-1.3-0.9-1.3c-0.8,0-1.1,0.7-1.1,1.5v3.6h-1.5V37.6z"/>
		<path d="M38.8,33.9h1.5v1.5h-1.5V33.9z M38.8,36.5h1.5v6.2h-1.5V36.5z"/>
		<path d="M41.4,41.4l2.6-3.8h-2.6v-1.1h4v1.3L43,41.6h2.7v1.1h-4.2V41.4z"/>
		<path d="M47,36.9c0.4-0.2,1-0.5,2-0.5c1.9,0,2.4,0.9,2.4,2.5v2.7c0,0.4,0,0.9,0.1,1.1H50c-0.1-0.2-0.1-0.5-0.1-0.8h0
			c-0.4,0.5-0.8,0.9-1.7,0.9c-1,0-1.8-0.7-1.8-1.8c0-1.7,1.4-2.1,3.2-2.1h0.3v-0.2c0-0.6-0.3-1.2-1.2-1.2c-0.7,0-1.4,0.4-1.7,0.6
			L47,36.9z M49.9,39.7h-0.1c-1.3,0-2,0.3-2,1.2c0,0.6,0.4,0.9,0.9,0.9c0.9,0,1.2-0.7,1.2-1.8V39.7z"/>
		<path d="M53.2,35.3l1.5-0.5v1.7h1.2v1.1h-1.2v3.2c0,0.7,0.2,0.9,0.7,0.9c0.3,0,0.5-0.1,0.6-0.1v1.1c-0.2,0.1-0.6,0.2-1,0.2
			c-1.1,0-1.7-0.5-1.7-1.8v-3.4h-1v-1.1h1V35.3z"/>
		<path d="M57,33.9h1.5v1.5H57V33.9z M57,36.5h1.5v6.2H57V36.5z"/>
		<path d="M62.5,36.4c1.3,0,2.7,0.7,2.7,3.2c0,2.6-1.5,3.2-2.7,3.2s-2.7-0.6-2.7-3.2C59.8,37.1,61.3,36.4,62.5,36.4z M62.5,41.7
			c1,0,1.2-1.1,1.2-2.1c0-1-0.2-2.1-1.2-2.1c-1,0-1.2,1.1-1.2,2.1C61.4,40.6,61.6,41.7,62.5,41.7z"/>
		<path d="M66.4,37.6c0-0.4,0-0.7,0-1h1.4c0,0.3,0,0.6,0,0.9h0c0.2-0.4,0.6-1,1.6-1c1.4,0,1.8,1,1.8,2.3v4h-1.5V39
			c0-0.9-0.2-1.3-0.9-1.3c-0.8,0-1.1,0.7-1.1,1.5v3.6h-1.5V37.6z"/>
		<path d="M78.3,36.4c1.3,0,2.7,0.7,2.7,3.2c0,2.6-1.5,3.2-2.7,3.2c-1.3,0-2.7-0.6-2.7-3.2C75.6,37.1,77.1,36.4,78.3,36.4z
			 M78.3,41.7c1,0,1.2-1.1,1.2-2.1c0-1-0.2-2.1-1.2-2.1c-1,0-1.2,1.1-1.2,2.1C77.1,40.6,77.4,41.7,78.3,41.7z"/>
		<path d="M82.7,37.6h-1v-1.1h1v-1.3c0-0.9,0.4-1.7,1.8-1.7c0.4,0,0.8,0.1,1.1,0.1l-0.1,1.1c-0.2,0-0.4-0.1-0.6-0.1
			c-0.4,0-0.7,0.3-0.7,0.8v1.1h1.1v1.1h-1.1v5.1h-1.5V37.6z"/>
		<path d="M89.9,35.3l1.5-0.5v1.7h1.2v1.1h-1.2v3.2c0,0.7,0.2,0.9,0.7,0.9c0.3,0,0.5-0.1,0.6-0.1v1.1c-0.2,0.1-0.6,0.2-1,0.2
			c-1.1,0-1.7-0.5-1.7-1.8v-3.4h-1v-1.1h1V35.3z"/>
		<path d="M93.5,33.7H95v3.6h0c0.3-0.4,0.6-0.9,1.5-0.9c1.4,0,1.8,1,1.8,2.3v4h-1.5V39c0-0.9-0.2-1.3-0.9-1.3
			c-0.8,0-1.1,0.7-1.1,1.5v3.6h-1.5V33.7z"/>
		<path d="M104.3,42.4c-0.3,0.1-1,0.4-1.8,0.4c-2,0-2.9-1.4-2.9-3.1c0-1.8,1-3.3,2.5-3.3c1.3,0,2.5,0.8,2.5,3.3V40H101
			c0,1.1,0.4,1.7,1.6,1.7c0.9,0,1.3-0.3,1.6-0.5L104.3,42.4z M103.2,39.1c0-1.1-0.4-1.6-1-1.6c-0.8,0-1.1,0.8-1.1,1.6H103.2z"/>
		<path d="M9.8,47.9v5.4c0,1.4,0.4,1.8,1.3,1.8c0.9,0,1.3-0.5,1.3-1.8v-5.4H14v5.4c0,2.2-1.3,3.1-2.8,3.1c-1.6,0-2.9-0.9-2.9-3.1
			v-5.4H9.8z"/>
		<path d="M15.5,51.1c0-0.4,0-0.7,0-1h1.4c0,0.3,0,0.6,0,0.9h0c0.2-0.4,0.6-1,1.6-1c1.4,0,1.8,1,1.8,2.3v4h-1.5v-3.7
			c0-0.9-0.2-1.3-0.9-1.3c-0.8,0-1.1,0.7-1.1,1.5v3.6h-1.5V51.1z"/>
		<path d="M21.8,47.5h1.5v1.5h-1.5V47.5z M21.8,50.1h1.5v6.2h-1.5V50.1z"/>
		<path d="M25.4,48.8l1.5-0.5v1.7h1.2v1.1h-1.2v3.2c0,0.7,0.2,0.9,0.7,0.9c0.3,0,0.5-0.1,0.6-0.1v1.1c-0.2,0.1-0.6,0.2-1,0.2
			c-1.1,0-1.7-0.5-1.7-1.8v-3.4h-1v-1.1h1V48.8z"/>
		<path d="M33.6,56c-0.3,0.1-1,0.4-1.8,0.4c-2,0-2.9-1.4-2.9-3.1c0-1.8,1-3.3,2.5-3.3c1.3,0,2.5,0.8,2.5,3.3v0.3h-3.6
			c0,1.1,0.4,1.7,1.6,1.7c0.9,0,1.3-0.3,1.6-0.5L33.6,56z M32.4,52.6c0-1.1-0.4-1.6-1-1.6c-0.8,0-1.1,0.8-1.1,1.6H32.4z"/>
		<path d="M40.1,47.3v7.9c0,0.4,0,0.8,0,1.1h-1.4c0-0.2,0-0.5,0-1h0c-0.2,0.5-0.7,1.1-1.6,1.1c-1.5,0-2.2-1.5-2.2-3.2
			c0-2,0.8-3.2,2.1-3.2c0.9,0,1.4,0.5,1.6,1h0v-3.7H40.1z M37.4,55.3c0.9,0,1.2-0.9,1.2-2.1c0-1.2-0.3-2.1-1.2-2.1
			c-0.8,0-1.1,0.8-1.1,2C36.3,54.5,36.6,55.3,37.4,55.3z"/>
		<path d="M44.8,47.9h1.8l2.8,6.6h0v-6.6h1.4v8.4H49l-2.8-6.5h0v6.5h-1.4V47.9z"/>
		<path d="M52.6,50.4c0.4-0.2,1-0.5,2-0.5c1.9,0,2.4,0.9,2.4,2.5v2.7c0,0.4,0,0.9,0.1,1.1h-1.3c-0.1-0.2-0.1-0.5-0.1-0.8h0
			c-0.4,0.5-0.8,0.9-1.7,0.9c-1,0-1.8-0.7-1.8-1.8c0-1.7,1.4-2.1,3.2-2.1h0.3v-0.2c0-0.6-0.3-1.2-1.2-1.2c-0.7,0-1.4,0.4-1.7,0.6
			L52.6,50.4z M55.6,53.2h-0.1c-1.3,0-2,0.3-2,1.2c0,0.6,0.4,0.9,0.9,0.9c0.9,0,1.2-0.7,1.2-1.8V53.2z"/>
		<path d="M58.9,48.8l1.5-0.5v1.7h1.2v1.1h-1.2v3.2c0,0.7,0.2,0.9,0.7,0.9c0.3,0,0.5-0.1,0.6-0.1v1.1c-0.2,0.1-0.6,0.2-1,0.2
			c-1.1,0-1.7-0.5-1.7-1.8v-3.4h-1v-1.1h1V48.8z"/>
		<path d="M62.7,47.5h1.5v1.5h-1.5V47.5z M62.7,50.1h1.5v6.2h-1.5V50.1z"/>
		<path d="M68.2,50c1.3,0,2.7,0.7,2.7,3.2c0,2.6-1.5,3.2-2.7,3.2s-2.7-0.6-2.7-3.2C65.5,50.6,67,50,68.2,50z M68.2,55.3
			c1,0,1.2-1.1,1.2-2.1c0-1-0.2-2.1-1.2-2.1c-1,0-1.2,1.1-1.2,2.1C67,54.2,67.3,55.3,68.2,55.3z"/>
		<path d="M72.1,51.1c0-0.4,0-0.7,0-1h1.4c0,0.3,0,0.6,0,0.9h0c0.2-0.4,0.6-1,1.6-1c1.4,0,1.8,1,1.8,2.3v4h-1.5v-3.7
			c0-0.9-0.2-1.3-0.9-1.3c-0.8,0-1.1,0.7-1.1,1.5v3.6h-1.5V51.1z"/>
		<path d="M78.2,54.8c0.2,0.1,0.9,0.4,1.5,0.4c0.5,0,1-0.1,1-0.6c0-0.2-0.1-0.5-0.7-0.8l-0.6-0.4c-0.6-0.4-1.3-0.8-1.3-1.7
			c0-0.9,0.8-1.8,2.1-1.8c0.8,0,1.4,0.2,1.5,0.3l-0.1,1.2c-0.4-0.1-0.8-0.3-1.3-0.3c-0.6,0-0.9,0.2-0.9,0.6c0,0.3,0.3,0.5,0.7,0.8
			L81,53c0.8,0.5,1.2,0.8,1.2,1.6c0,1.1-1,1.8-2.3,1.8c-0.8,0-1.4-0.2-1.7-0.3L78.2,54.8z"/>
	</g>
</g>
<g>
	<path d="M11.4,249.2c1.7,0,3.3,1.3,3.3,4.3c0,3-1.6,4.3-3.3,4.3c-1.7,0-3.3-1.3-3.3-4.3C8.1,250.5,9.6,249.2,11.4,249.2z
		 M11.4,256.6c1,0,1.7-0.8,1.7-3.1s-0.8-3.1-1.7-3.1c-1,0-1.7,0.8-1.7,3.1S10.4,256.6,11.4,256.6z"/>
	<path d="M15.9,252.5c0-0.4,0-0.7,0-1h1.3c0,0.4,0,0.7,0,1.1h0c0.2-0.5,0.6-1.2,1.6-1.2c0.1,0,0.2,0,0.2,0v1.4
		c-0.1,0-0.3-0.1-0.4-0.1c-0.6,0-1.3,0.4-1.3,1.5v3.3h-1.5V252.5z"/>
	<path d="M20.1,258.6c0.3,0.2,1,0.5,1.8,0.5c1.4,0,1.6-1,1.6-1.9v-0.6h0c-0.2,0.5-0.7,1-1.6,1c-0.9,0-2.1-0.6-2.1-3
		c0-1.7,0.6-3.2,2.2-3.2c0.9,0,1.3,0.5,1.6,1h0c0-0.3,0-0.6,0-0.9H25c0,0.3,0,0.6,0,1v4.5c0,1.9-0.6,3.3-2.8,3.3
		c-1,0-1.7-0.2-2.1-0.4L20.1,258.6z M22.2,256.5c0.9,0,1.3-0.7,1.3-2.1c0-1.3-0.5-2-1.2-2c-0.8,0-1.1,0.7-1.1,2
		C21.3,255.9,21.7,256.5,22.2,256.5z"/>
	<path d="M26.6,251.9c0.4-0.2,1-0.5,1.9-0.5c1.9,0,2.3,0.9,2.3,2.5v2.7c0,0.4,0,0.8,0.1,1.1h-1.3c-0.1-0.2-0.1-0.5-0.1-0.8h0
		c-0.4,0.5-0.8,0.9-1.7,0.9c-0.9,0-1.8-0.7-1.8-1.8c0-1.7,1.4-2.1,3.2-2.1h0.3v-0.2c0-0.6-0.3-1.2-1.1-1.2c-0.7,0-1.4,0.4-1.7,0.6
		L26.6,251.9z M29.5,254.6h-0.1c-1.3,0-2,0.3-2,1.2c0,0.6,0.4,0.9,0.9,0.9c0.9,0,1.2-0.7,1.2-1.7V254.6z"/>
	<path d="M32.2,252.5c0-0.4,0-0.7,0-1h1.4c0,0.3,0,0.6,0,0.9h0c0.2-0.4,0.6-1,1.6-1c1.4,0,1.8,1,1.8,2.3v3.9h-1.5v-3.7
		c0-0.9-0.2-1.3-0.8-1.3c-0.8,0-1,0.7-1,1.4v3.6h-1.5V252.5z"/>
	<path d="M38.5,248.9H40v1.4h-1.5V248.9z M38.5,251.5H40v6.1h-1.5V251.5z"/>
	<path d="M41.3,256.2c0.2,0.1,0.8,0.4,1.5,0.4c0.5,0,0.9-0.1,0.9-0.6c0-0.2-0.1-0.5-0.7-0.8l-0.6-0.4c-0.6-0.4-1.3-0.8-1.3-1.7
		c0-0.8,0.8-1.7,2.1-1.7c0.8,0,1.4,0.2,1.5,0.2l-0.1,1.1c-0.4-0.1-0.8-0.3-1.3-0.3c-0.6,0-0.8,0.2-0.8,0.6c0,0.3,0.3,0.5,0.7,0.8
		l0.7,0.5c0.8,0.5,1.1,0.8,1.1,1.5c0,1.1-0.9,1.8-2.3,1.8c-0.8,0-1.4-0.2-1.7-0.3L41.3,256.2z"/>
	<path d="M46.6,251.9c0.4-0.2,1-0.5,1.9-0.5c1.9,0,2.3,0.9,2.3,2.5v2.7c0,0.4,0,0.8,0.1,1.1h-1.3c-0.1-0.2-0.1-0.5-0.1-0.8h0
		c-0.4,0.5-0.8,0.9-1.7,0.9c-0.9,0-1.8-0.7-1.8-1.8c0-1.7,1.4-2.1,3.2-2.1h0.3v-0.2c0-0.6-0.3-1.2-1.1-1.2c-0.7,0-1.4,0.4-1.7,0.6
		L46.6,251.9z M49.5,254.6h-0.1c-1.3,0-2,0.3-2,1.2c0,0.6,0.4,0.9,0.9,0.9c0.9,0,1.2-0.7,1.2-1.7V254.6z"/>
	<path d="M52.7,250.2l1.5-0.5v1.7h1.2v1.1h-1.2v3.2c0,0.7,0.2,0.8,0.7,0.8c0.3,0,0.5-0.1,0.6-0.1v1c-0.2,0.1-0.5,0.2-1,0.2
		c-1.1,0-1.7-0.5-1.7-1.8v-3.3h-1v-1.1h1V250.2z"/>
	<path d="M56.5,248.9H58v1.4h-1.5V248.9z M56.5,251.5H58v6.1h-1.5V251.5z"/>
	<path d="M62,251.4c1.2,0,2.7,0.7,2.7,3.1c0,2.6-1.4,3.2-2.7,3.2c-1.2,0-2.7-0.6-2.7-3.2C59.3,252.1,60.7,251.4,62,251.4z M62,256.7
		c0.9,0,1.2-1.1,1.2-2.1c0-1-0.2-2.1-1.2-2.1c-0.9,0-1.2,1.1-1.2,2.1C60.8,255.6,61,256.7,62,256.7z"/>
	<path d="M65.8,252.5c0-0.4,0-0.7,0-1h1.4c0,0.3,0,0.6,0,0.9h0c0.2-0.4,0.6-1,1.6-1c1.4,0,1.8,1,1.8,2.3v3.9h-1.5v-3.7
		c0-0.9-0.2-1.3-0.8-1.3c-0.8,0-1,0.7-1,1.4v3.6h-1.5V252.5z"/>
	<path d="M80.1,248.7v7.9c0,0.4,0,0.8,0,1h-1.4c0-0.2,0-0.5,0-0.9h0c-0.2,0.5-0.7,1-1.6,1c-1.5,0-2.1-1.4-2.1-3.1
		c0-2,0.8-3.2,2.1-3.2c0.9,0,1.4,0.5,1.6,1h0v-3.7H80.1z M77.4,256.6c0.9,0,1.2-0.9,1.2-2.1c0-1.2-0.3-2.1-1.1-2.1
		c-0.8,0-1.1,0.8-1.1,2C76.4,255.9,76.6,256.6,77.4,256.6z"/>
	<path d="M85.9,257.3c-0.3,0.1-0.9,0.4-1.8,0.4c-2,0-2.8-1.4-2.8-3.1c0-1.8,1-3.2,2.5-3.2c1.3,0,2.4,0.8,2.4,3.3v0.3h-3.5
		c0,1,0.4,1.7,1.6,1.7c0.9,0,1.3-0.3,1.6-0.5L85.9,257.3z M84.8,254c0-1.1-0.4-1.6-1-1.6c-0.8,0-1.1,0.8-1.1,1.6H84.8z"/>
	<path d="M87.2,256.2c0.2,0.1,0.8,0.4,1.5,0.4c0.5,0,0.9-0.1,0.9-0.6c0-0.2-0.1-0.5-0.7-0.8l-0.6-0.4c-0.6-0.4-1.3-0.8-1.3-1.7
		c0-0.8,0.8-1.7,2.1-1.7c0.8,0,1.4,0.2,1.5,0.2l-0.1,1.1c-0.4-0.1-0.8-0.3-1.3-0.3c-0.6,0-0.8,0.2-0.8,0.6c0,0.3,0.3,0.5,0.7,0.8
		l0.7,0.5c0.8,0.5,1.1,0.8,1.1,1.5c0,1.1-0.9,1.8-2.3,1.8c-0.8,0-1.4-0.2-1.7-0.3L87.2,256.2z"/>
	<path d="M95.5,249.3h1.8l2.8,6.5h0v-6.5h1.4v8.3h-1.8l-2.7-6.5h0v6.5h-1.4V249.3z"/>
	<path d="M103.2,251.9c0.4-0.2,1-0.5,1.9-0.5c1.9,0,2.3,0.9,2.3,2.5v2.7c0,0.4,0,0.8,0.1,1.1h-1.3c-0.1-0.2-0.1-0.5-0.1-0.8h0
		c-0.4,0.5-0.8,0.9-1.7,0.9c-0.9,0-1.8-0.7-1.8-1.8c0-1.7,1.4-2.1,3.2-2.1h0.3v-0.2c0-0.6-0.3-1.2-1.1-1.2c-0.7,0-1.4,0.4-1.7,0.6
		L103.2,251.9z M106.1,254.6H106c-1.3,0-2,0.3-2,1.2c0,0.6,0.4,0.9,0.9,0.9c0.9,0,1.2-0.7,1.2-1.7V254.6z"/>
	<path d="M109.4,250.2l1.5-0.5v1.7h1.2v1.1h-1.2v3.2c0,0.7,0.2,0.8,0.7,0.8c0.3,0,0.5-0.1,0.6-0.1v1c-0.2,0.1-0.5,0.2-1,0.2
		c-1.1,0-1.7-0.5-1.7-1.8v-3.3h-1v-1.1h1V250.2z"/>
	<path d="M113.2,248.9h1.5v1.4h-1.5V248.9z M113.2,251.5h1.5v6.1h-1.5V251.5z"/>
	<path d="M118.6,251.4c1.2,0,2.7,0.7,2.7,3.1c0,2.6-1.4,3.2-2.7,3.2c-1.2,0-2.7-0.6-2.7-3.2C116,252.1,117.4,251.4,118.6,251.4z
		 M118.6,256.7c0.9,0,1.2-1.1,1.2-2.1c0-1-0.2-2.1-1.2-2.1c-0.9,0-1.2,1.1-1.2,2.1C117.5,255.6,117.7,256.7,118.6,256.7z"/>
	<path d="M122.5,252.5c0-0.4,0-0.7,0-1h1.4c0,0.3,0,0.6,0,0.9h0c0.2-0.4,0.6-1,1.6-1c1.4,0,1.8,1,1.8,2.3v3.9h-1.5v-3.7
		c0-0.9-0.2-1.3-0.8-1.3c-0.8,0-1,0.7-1,1.4v3.6h-1.5V252.5z"/>
	<path d="M128.5,256.2c0.2,0.1,0.8,0.4,1.5,0.4c0.5,0,0.9-0.1,0.9-0.6c0-0.2-0.1-0.5-0.7-0.8l-0.6-0.4c-0.6-0.4-1.3-0.8-1.3-1.7
		c0-0.8,0.8-1.7,2.1-1.7c0.8,0,1.4,0.2,1.5,0.2l-0.1,1.1c-0.4-0.1-0.8-0.3-1.3-0.3c-0.6,0-0.8,0.2-0.8,0.6c0,0.3,0.3,0.5,0.7,0.8
		l0.7,0.5c0.8,0.5,1.1,0.8,1.1,1.5c0,1.1-0.9,1.8-2.3,1.8c-0.8,0-1.4-0.2-1.7-0.3L128.5,256.2z"/>
	<path d="M138.2,249.3v5.4c0,1.4,0.4,1.8,1.3,1.8c0.9,0,1.3-0.5,1.3-1.8v-5.4h1.5v5.4c0,2.2-1.3,3-2.8,3c-1.6,0-2.8-0.9-2.8-3v-5.4
		H138.2z"/>
	<path d="M143.8,252.5c0-0.4,0-0.7,0-1h1.4c0,0.3,0,0.6,0,0.9h0c0.2-0.4,0.6-1,1.6-1c1.4,0,1.8,1,1.8,2.3v3.9h-1.5v-3.7
		c0-0.9-0.2-1.3-0.8-1.3c-0.8,0-1,0.7-1,1.4v3.6h-1.5V252.5z"/>
	<path d="M150.1,248.9h1.5v1.4h-1.5V248.9z M150.1,251.5h1.5v6.1h-1.5V251.5z"/>
	<path d="M157.5,257.3c-0.3,0.1-0.9,0.4-1.8,0.4c-2,0-2.8-1.4-2.8-3.1c0-1.8,1-3.2,2.5-3.2c1.3,0,2.4,0.8,2.4,3.3v0.3h-3.5
		c0,1,0.4,1.7,1.6,1.7c0.9,0,1.3-0.3,1.6-0.5L157.5,257.3z M156.4,254c0-1.1-0.4-1.6-1-1.6c-0.8,0-1.1,0.8-1.1,1.6H156.4z"/>
	<path d="M158.8,256.2c0.2,0.1,0.8,0.4,1.5,0.4c0.5,0,0.9-0.1,0.9-0.6c0-0.2-0.1-0.5-0.7-0.8l-0.6-0.4c-0.6-0.4-1.3-0.8-1.3-1.7
		c0-0.8,0.8-1.7,2.1-1.7c0.8,0,1.4,0.2,1.5,0.2l-0.1,1.1c-0.4-0.1-0.8-0.3-1.3-0.3c-0.6,0-0.8,0.2-0.8,0.6c0,0.3,0.3,0.5,0.7,0.8
		l0.7,0.5c0.8,0.5,1.1,0.8,1.1,1.5c0,1.1-0.9,1.8-2.3,1.8c-0.8,0-1.4-0.2-1.7-0.3L158.8,256.2z"/>
	<path d="M8.2,265.9c0-0.4,0-0.8,0-1h1.4c0,0.2,0,0.5,0,0.9h0c0.2-0.5,0.7-1,1.6-1c1.5,0,2.1,1.4,2.1,3.1c0,2-0.8,3.2-2.1,3.2
		c-0.9,0-1.4-0.5-1.6-1h0v3.4H8.2V265.9z M10.8,270c0.8,0,1.1-0.8,1.1-2c0-1.4-0.2-2.1-1.1-2.1c-0.9,0-1.2,0.9-1.2,2.1
		C9.7,269.2,10,270,10.8,270z"/>
	<path d="M17.1,264.8c1.2,0,2.7,0.7,2.7,3.1c0,2.6-1.4,3.2-2.7,3.2c-1.2,0-2.7-0.6-2.7-3.2C14.4,265.5,15.8,264.8,17.1,264.8z
		 M17.1,270.1c0.9,0,1.2-1.1,1.2-2.1c0-1-0.2-2.1-1.2-2.1c-0.9,0-1.2,1.1-1.2,2.1C15.9,269,16.1,270.1,17.1,270.1z"/>
	<path d="M25.7,270c0,0.4,0,0.7,0,1h-1.4c0-0.3,0-0.6,0-0.9l0,0l0,0c-0.3,0.5-0.7,1-1.6,1c-1.4,0-1.8-1-1.8-2.3v-3.9h1.5v3.7
		c0,0.9,0.3,1.3,0.9,1.3c0.8,0,1-0.7,1-1.5v-3.5h1.5V270z"/>
	<path d="M27.1,265.9c0-0.4,0-0.7,0-1h1.3c0,0.4,0,0.7,0,1.1h0c0.2-0.5,0.6-1.2,1.6-1.2c0.1,0,0.2,0,0.2,0v1.4
		c-0.1,0-0.3-0.1-0.4-0.1c-0.6,0-1.3,0.4-1.3,1.5v3.3h-1.5V265.9z"/>
	<path d="M34.5,262.1h1.5v8.9h-1.5V262.1z"/>
	<path d="M39.3,262.1l-0.9,2.9h-1.1l0.6-2.9H39.3z"/>
	<path d="M40.8,265.3c0.4-0.2,1-0.5,1.9-0.5c1.9,0,2.3,0.9,2.3,2.5v2.7c0,0.4,0,0.8,0.1,1.1h-1.3c-0.1-0.2-0.1-0.5-0.1-0.8h0
		c-0.4,0.5-0.8,0.9-1.7,0.9c-0.9,0-1.8-0.7-1.8-1.8c0-1.7,1.4-2.1,3.2-2.1h0.3V267c0-0.6-0.3-1.2-1.1-1.2c-0.7,0-1.4,0.4-1.7,0.6
		L40.8,265.3z M43.7,268h-0.1c-1.3,0-2,0.3-2,1.2c0,0.6,0.4,0.9,0.9,0.9c0.9,0,1.2-0.7,1.2-1.7V268z"/>
	<path d="M46.6,262.1H48v8.9h-1.5V262.1z"/>
	<path d="M49.6,262.3h1.5v1.4h-1.5V262.3z M49.6,264.9h1.5v6.1h-1.5V264.9z"/>
	<path d="M52.5,265.9c0-0.4,0-0.8,0-1H54c0,0.3,0,0.6,0,1h0c0.2-0.5,0.7-1.1,1.5-1.1c1,0,1.4,0.6,1.5,1c0.3-0.4,0.7-1,1.6-1
		c1.3,0,1.8,0.9,1.8,2.4v3.8H59v-3.9c0-0.8-0.2-1.1-0.8-1.1c-0.7,0-1,0.6-1,1.3v3.7h-1.5v-3.9c0-0.8-0.2-1.1-0.8-1.1
		c-0.7,0-1,0.6-1,1.3v3.7h-1.5V265.9z"/>
	<path d="M66.3,270.7c-0.3,0.1-0.9,0.4-1.8,0.4c-2,0-2.8-1.4-2.8-3.1c0-1.8,1-3.2,2.5-3.2c1.3,0,2.4,0.8,2.4,3.3v0.3h-3.5
		c0,1,0.4,1.7,1.6,1.7c0.9,0,1.3-0.3,1.6-0.5L66.3,270.7z M65.2,267.4c0-1.1-0.4-1.6-1-1.6c-0.8,0-1.1,0.8-1.1,1.6H65.2z"/>
	<path d="M67.7,265.9c0-0.4,0-0.7,0-1h1.4c0,0.3,0,0.6,0,0.9h0c0.2-0.4,0.6-1,1.6-1c1.4,0,1.8,1,1.8,2.3v3.9h-1.5v-3.7
		c0-0.9-0.2-1.3-0.8-1.3c-0.8,0-1,0.7-1,1.4v3.6h-1.5V265.9z"/>
	<path d="M74.4,263.6l1.5-0.5v1.7h1.2v1.1h-1.2v3.2c0,0.7,0.2,0.8,0.7,0.8c0.3,0,0.5-0.1,0.6-0.1v1c-0.2,0.1-0.5,0.2-1,0.2
		c-1.1,0-1.7-0.5-1.7-1.8V266h-1v-1.1h1V263.6z"/>
	<path d="M78.4,265.3c0.4-0.2,1-0.5,1.9-0.5c1.9,0,2.3,0.9,2.3,2.5v2.7c0,0.4,0,0.8,0.1,1.1h-1.3c-0.1-0.2-0.1-0.5-0.1-0.8h0
		c-0.4,0.5-0.8,0.9-1.7,0.9c-0.9,0-1.8-0.7-1.8-1.8c0-1.7,1.4-2.1,3.2-2.1h0.3V267c0-0.6-0.3-1.2-1.1-1.2c-0.7,0-1.4,0.4-1.7,0.6
		L78.4,265.3z M81.2,268h-0.1c-1.3,0-2,0.3-2,1.2c0,0.6,0.4,0.9,0.9,0.9c0.9,0,1.2-0.7,1.2-1.7V268z"/>
	<path d="M84.5,263.6l1.5-0.5v1.7h1.2v1.1H86v3.2c0,0.7,0.2,0.8,0.7,0.8c0.3,0,0.5-0.1,0.6-0.1v1c-0.2,0.1-0.5,0.2-1,0.2
		c-1.1,0-1.7-0.5-1.7-1.8V266h-1v-1.1h1V263.6z"/>
	<path d="M88.3,262.3h1.5v1.4h-1.5V262.3z M88.3,264.9h1.5v6.1h-1.5V264.9z"/>
	<path d="M93.8,264.8c1.2,0,2.7,0.7,2.7,3.1c0,2.6-1.4,3.2-2.7,3.2c-1.2,0-2.7-0.6-2.7-3.2C91.1,265.5,92.5,264.8,93.8,264.8z
		 M93.8,270.1c0.9,0,1.2-1.1,1.2-2.1c0-1-0.2-2.1-1.2-2.1c-0.9,0-1.2,1.1-1.2,2.1C92.6,269,92.8,270.1,93.8,270.1z"/>
	<path d="M97.6,265.9c0-0.4,0-0.7,0-1h1.4c0,0.3,0,0.6,0,0.9h0c0.2-0.4,0.6-1,1.6-1c1.4,0,1.8,1,1.8,2.3v3.9H101v-3.7
		c0-0.9-0.2-1.3-0.8-1.3c-0.8,0-1,0.7-1,1.4v3.6h-1.5V265.9z"/>
	<path d="M12.7,284.1c-0.3,0.1-0.9,0.4-1.8,0.4c-2,0-2.8-1.4-2.8-3.1c0-1.8,1-3.2,2.5-3.2c1.3,0,2.4,0.8,2.4,3.3v0.3H9.4
		c0,1,0.4,1.7,1.6,1.7c0.9,0,1.3-0.3,1.6-0.5L12.7,284.1z M11.6,280.8c0-1.1-0.4-1.6-1-1.6c-0.8,0-1.1,0.8-1.1,1.6H11.6z"/>
	<path d="M14.7,277l1.5-0.5v1.7h1.2v1.1h-1.2v3.2c0,0.7,0.2,0.8,0.7,0.8c0.3,0,0.5-0.1,0.6-0.1v1c-0.2,0.1-0.5,0.2-1,0.2
		c-1.1,0-1.7-0.5-1.7-1.8v-3.3h-1v-1.1h1V277z"/>
	<path d="M21.5,275.5H23v8.9h-1.5V275.5z"/>
	<path d="M26.4,275.5l-0.9,2.9h-1.1l0.6-2.9H26.4z"/>
	<path d="M27.8,278.7c0.4-0.2,1-0.5,1.9-0.5c1.9,0,2.3,0.9,2.3,2.5v2.7c0,0.4,0,0.8,0.1,1.1h-1.3c-0.1-0.2-0.1-0.5-0.1-0.8h0
		c-0.4,0.5-0.8,0.9-1.7,0.9c-0.9,0-1.8-0.7-1.8-1.8c0-1.7,1.4-2.1,3.2-2.1h0.3v-0.2c0-0.6-0.3-1.2-1.1-1.2c-0.7,0-1.4,0.4-1.7,0.6
		L27.8,278.7z M30.7,281.4h-0.1c-1.3,0-2,0.3-2,1.2c0,0.6,0.4,0.9,0.9,0.9c0.9,0,1.2-0.7,1.2-1.7V281.4z"/>
	<path d="M33.7,285.4c0.3,0.2,1,0.5,1.8,0.5c1.4,0,1.6-1,1.6-1.9v-0.6h0c-0.2,0.5-0.7,1-1.6,1c-0.9,0-2.1-0.6-2.1-3
		c0-1.7,0.6-3.2,2.2-3.2c0.9,0,1.3,0.5,1.6,1h0c0-0.3,0-0.6,0-0.9h1.3c0,0.3,0,0.6,0,1v4.5c0,1.9-0.6,3.3-2.8,3.3
		c-1,0-1.7-0.2-2.1-0.4L33.7,285.4z M35.8,283.3c0.9,0,1.3-0.7,1.3-2.1c0-1.3-0.5-2-1.2-2c-0.8,0-1.1,0.7-1.1,2
		C34.8,282.7,35.3,283.3,35.8,283.3z"/>
	<path d="M39.9,279.3c0-0.4,0-0.7,0-1h1.3c0,0.4,0,0.7,0,1.1h0c0.2-0.5,0.6-1.2,1.6-1.2c0.1,0,0.2,0,0.2,0v1.4
		c-0.1,0-0.3-0.1-0.4-0.1c-0.6,0-1.3,0.4-1.3,1.5v3.3h-1.5V279.3z"/>
	<path d="M44.1,275.7h1.5v1.4h-1.5V275.7z M44.1,278.3h1.5v6.1h-1.5V278.3z"/>
	<path d="M51.2,284.3c-0.3,0.1-0.9,0.2-1.4,0.2c-2,0-2.9-1.4-2.9-3.1c0-1.7,0.9-3.2,3-3.2c0.5,0,1,0.1,1.3,0.2l-0.1,1.2
		c-0.3-0.1-0.6-0.3-1-0.3c-1.1,0-1.6,0.7-1.6,2.1c0,1.1,0.5,2,1.7,2c0.4,0,0.8-0.2,1-0.3L51.2,284.3z"/>
	<path d="M57,283.4c0,0.4,0,0.7,0,1h-1.4c0-0.3,0-0.6,0-0.9l0,0l0,0c-0.3,0.5-0.7,1-1.6,1c-1.4,0-1.8-1-1.8-2.3v-3.9h1.5v3.7
		c0,0.9,0.3,1.3,0.9,1.3c0.8,0,1-0.7,1-1.5v-3.5H57V283.4z"/>
	<path d="M58.4,275.5h1.5v8.9h-1.5V275.5z"/>
	<path d="M61.9,277l1.5-0.5v1.7h1.2v1.1h-1.2v3.2c0,0.7,0.2,0.8,0.7,0.8c0.3,0,0.5-0.1,0.6-0.1v1c-0.2,0.1-0.5,0.2-1,0.2
		c-1.1,0-1.7-0.5-1.7-1.8v-3.3h-1v-1.1h1V277z"/>
	<path d="M70.4,283.4c0,0.4,0,0.7,0,1H69c0-0.3,0-0.6,0-0.9l0,0l0,0c-0.3,0.5-0.7,1-1.6,1c-1.4,0-1.8-1-1.8-2.3v-3.9H67v3.7
		c0,0.9,0.3,1.3,0.9,1.3c0.8,0,1-0.7,1-1.5v-3.5h1.5V283.4z"/>
	<path d="M71.7,279.3c0-0.4,0-0.7,0-1H73c0,0.4,0,0.7,0,1.1h0c0.2-0.5,0.6-1.2,1.6-1.2c0.1,0,0.2,0,0.2,0v1.4
		c-0.1,0-0.3-0.1-0.4-0.1c-0.6,0-1.3,0.4-1.3,1.5v3.3h-1.5V279.3z"/>
	<path d="M80.2,284.1c-0.3,0.1-0.9,0.4-1.8,0.4c-2,0-2.8-1.4-2.8-3.1c0-1.8,1-3.2,2.5-3.2c1.3,0,2.4,0.8,2.4,3.3v0.3H77
		c0,1,0.4,1.7,1.6,1.7c0.9,0,1.3-0.3,1.6-0.5L80.2,284.1z M79.1,280.8c0-1.1-0.4-1.6-1-1.6c-0.8,0-1.1,0.8-1.1,1.6H79.1z"/>
</g>
<g>
	<path d="M11.8,402.1c1.7,0,3.3,1.3,3.3,4.3c0,3-1.6,4.3-3.3,4.3c-1.7,0-3.3-1.3-3.3-4.3C8.5,403.4,10.1,402.1,11.8,402.1z
		 M11.8,409.5c1,0,1.8-0.8,1.8-3.1c0-2.3-0.8-3.1-1.8-3.1c-1,0-1.8,0.8-1.8,3.1C10.1,408.7,10.9,409.5,11.8,409.5z"/>
	<path d="M16.5,405.4c0-0.4,0-0.7,0-1h1.3c0,0.4,0,0.8,0,1.1h0c0.2-0.5,0.6-1.2,1.6-1.2c0.1,0,0.2,0,0.3,0v1.4
		c-0.1,0-0.3-0.1-0.4-0.1c-0.6,0-1.3,0.4-1.3,1.5v3.4h-1.5V405.4z"/>
	<path d="M20.7,411.5c0.3,0.2,1,0.5,1.8,0.5c1.4,0,1.6-1,1.6-1.9v-0.6h0c-0.2,0.5-0.7,1-1.6,1c-0.9,0-2.2-0.6-2.2-3.1
		c0-1.7,0.6-3.2,2.2-3.2c0.9,0,1.3,0.5,1.6,1.1h0c0-0.3,0-0.6,0-1h1.3c0,0.3,0,0.6,0,1v4.6c0,1.9-0.6,3.3-2.9,3.3
		c-1,0-1.8-0.3-2.1-0.4L20.7,411.5z M22.8,409.5c0.9,0,1.3-0.7,1.3-2.1c0-1.3-0.5-2-1.2-2c-0.8,0-1.1,0.7-1.1,2
		C21.9,408.9,22.3,409.5,22.8,409.5z"/>
	<path d="M27.2,404.7c0.4-0.2,1-0.5,2-0.5c1.9,0,2.4,0.9,2.4,2.5v2.7c0,0.4,0,0.9,0.1,1.1h-1.3c-0.1-0.2-0.1-0.5-0.1-0.8h0
		c-0.4,0.5-0.8,0.9-1.7,0.9c-1,0-1.8-0.7-1.8-1.8c0-1.7,1.4-2.1,3.2-2.1h0.3v-0.2c0-0.6-0.3-1.2-1.2-1.2c-0.7,0-1.4,0.4-1.7,0.6
		L27.2,404.7z M30.2,407.5H30c-1.3,0-2,0.3-2,1.2c0,0.6,0.4,0.9,0.9,0.9c0.9,0,1.2-0.7,1.2-1.8V407.5z"/>
	<path d="M32.9,405.4c0-0.4,0-0.7,0-1h1.4c0,0.3,0,0.6,0,0.9h0c0.2-0.4,0.6-1,1.6-1c1.4,0,1.8,1,1.8,2.3v4h-1.5v-3.7
		c0-0.9-0.2-1.3-0.9-1.3c-0.8,0-1.1,0.7-1.1,1.5v3.6h-1.5V405.4z"/>
	<path d="M39.3,401.8h1.5v1.5h-1.5V401.8z M39.3,404.4h1.5v6.2h-1.5V404.4z"/>
	<path d="M41.9,409.3l2.6-3.8H42v-1.1h4v1.3l-2.6,3.8h2.7v1.1h-4.2V409.3z"/>
	<path d="M47.4,404.7c0.4-0.2,1-0.5,2-0.5c1.9,0,2.4,0.9,2.4,2.5v2.7c0,0.4,0,0.9,0.1,1.1h-1.3c-0.1-0.2-0.1-0.5-0.1-0.8h0
		c-0.4,0.5-0.8,0.9-1.7,0.9c-1,0-1.8-0.7-1.8-1.8c0-1.7,1.4-2.1,3.2-2.1h0.3v-0.2c0-0.6-0.3-1.2-1.2-1.2c-0.7,0-1.4,0.4-1.7,0.6
		L47.4,404.7z M50.4,407.5h-0.1c-1.3,0-2,0.3-2,1.2c0,0.6,0.4,0.9,0.9,0.9c0.9,0,1.2-0.7,1.2-1.8V407.5z"/>
	<path d="M57.3,410.4c-0.3,0.1-0.9,0.3-1.5,0.3c-2,0-2.9-1.4-2.9-3.2c0-1.8,0.9-3.2,3-3.2c0.5,0,1,0.1,1.3,0.3l-0.1,1.2
		c-0.3-0.1-0.6-0.3-1-0.3c-1.1,0-1.6,0.8-1.6,2.1c0,1.2,0.6,2,1.7,2c0.4,0,0.9-0.2,1.1-0.3L57.3,410.4z"/>
	<path d="M58.4,401.8h1.5v1.5h-1.5V401.8z M58.4,404.4h1.5v6.2h-1.5V404.4z"/>
	<path d="M63.9,404.3c1.3,0,2.7,0.7,2.7,3.2c0,2.6-1.5,3.2-2.7,3.2c-1.3,0-2.7-0.6-2.7-3.2C61.2,404.9,62.7,404.3,63.9,404.3z
		 M63.9,409.6c1,0,1.2-1.1,1.2-2.1c0-1-0.2-2.1-1.2-2.1c-1,0-1.2,1.1-1.2,2.1C62.7,408.5,63,409.6,63.9,409.6z M64,402h1.4l-1.2,1.7
		h-0.9L64,402z"/>
	<path d="M67.8,405.4c0-0.4,0-0.7,0-1h1.4c0,0.3,0,0.6,0,0.9h0c0.2-0.4,0.6-1,1.6-1c1.4,0,1.8,1,1.8,2.3v4h-1.5v-3.7
		c0-0.9-0.2-1.3-0.9-1.3c-0.8,0-1.1,0.7-1.1,1.5v3.6h-1.5V405.4z"/>
	<path d="M82.2,401.6v7.9c0,0.4,0,0.8,0,1.1h-1.4c0-0.2,0-0.5,0-1h0c-0.2,0.5-0.7,1.1-1.6,1.1c-1.5,0-2.2-1.5-2.2-3.2
		c0-2,0.8-3.2,2.1-3.2c0.9,0,1.4,0.5,1.6,1h0v-3.7H82.2z M79.6,409.6c0.9,0,1.2-0.9,1.2-2.1c0-1.2-0.3-2.1-1.2-2.1
		c-0.8,0-1.1,0.8-1.1,2C78.5,408.8,78.7,409.6,79.6,409.6z"/>
	<path d="M88.1,410.3c-0.3,0.1-1,0.4-1.8,0.4c-2,0-2.9-1.4-2.9-3.1c0-1.8,1-3.3,2.5-3.3c1.3,0,2.5,0.8,2.5,3.3v0.3h-3.6
		c0,1.1,0.4,1.7,1.6,1.7c0.9,0,1.3-0.3,1.6-0.5L88.1,410.3z M87,406.9c0-1.1-0.4-1.6-1-1.6c-0.8,0-1.1,0.8-1.1,1.6H87z"/>
	<path d="M92.8,401.6h1.5v9h-1.5V401.6z"/>
	<path d="M96.1,404.7c0.4-0.2,1-0.5,2-0.5c1.9,0,2.4,0.9,2.4,2.5v2.7c0,0.4,0,0.9,0.1,1.1h-1.3c-0.1-0.2-0.1-0.5-0.1-0.8h0
		c-0.4,0.5-0.8,0.9-1.7,0.9c-1,0-1.8-0.7-1.8-1.8c0-1.7,1.4-2.1,3.2-2.1H99v-0.2c0-0.6-0.3-1.2-1.2-1.2c-0.7,0-1.4,0.4-1.7,0.6
		L96.1,404.7z M99,407.5h-0.1c-1.3,0-2,0.3-2,1.2c0,0.6,0.4,0.9,0.9,0.9c0.9,0,1.2-0.7,1.2-1.8V407.5z"/>
	<path d="M101.6,409.1c0.2,0.1,0.9,0.4,1.5,0.4c0.5,0,1-0.1,1-0.6c0-0.2-0.1-0.5-0.7-0.8l-0.6-0.4c-0.6-0.4-1.3-0.8-1.3-1.7
		c0-0.9,0.8-1.8,2.1-1.8c0.8,0,1.4,0.2,1.5,0.3l-0.1,1.2c-0.4-0.1-0.8-0.3-1.3-0.3c-0.6,0-0.9,0.2-0.9,0.6c0,0.3,0.3,0.5,0.7,0.8
		l0.7,0.5c0.8,0.5,1.2,0.8,1.2,1.6c0,1.1-1,1.8-2.3,1.8c-0.8,0-1.4-0.2-1.7-0.3L101.6,409.1z"/>
	<path d="M110,402.2h1.8l2.8,6.6h0v-6.6h1.4v8.4h-1.8l-2.8-6.5h0v6.5H110V402.2z"/>
	<path d="M117.9,404.7c0.4-0.2,1-0.5,2-0.5c1.9,0,2.4,0.9,2.4,2.5v2.7c0,0.4,0,0.9,0.1,1.1h-1.3c-0.1-0.2-0.1-0.5-0.1-0.8h0
		c-0.4,0.5-0.8,0.9-1.7,0.9c-1,0-1.8-0.7-1.8-1.8c0-1.7,1.4-2.1,3.2-2.1h0.3v-0.2c0-0.6-0.3-1.2-1.2-1.2c-0.7,0-1.4,0.4-1.7,0.6
		L117.9,404.7z M120.8,407.5h-0.1c-1.3,0-2,0.3-2,1.2c0,0.6,0.4,0.9,0.9,0.9c0.9,0,1.2-0.7,1.2-1.8V407.5z"/>
	<path d="M127.8,410.4c-0.3,0.1-0.9,0.3-1.5,0.3c-2,0-2.9-1.4-2.9-3.2c0-1.8,0.9-3.2,3-3.2c0.5,0,1,0.1,1.3,0.3l-0.1,1.2
		c-0.3-0.1-0.6-0.3-1-0.3c-1.1,0-1.6,0.8-1.6,2.1c0,1.2,0.6,2,1.7,2c0.4,0,0.9-0.2,1.1-0.3L127.8,410.4z"/>
	<path d="M128.8,401.8h1.5v1.5h-1.5V401.8z M128.8,404.4h1.5v6.2h-1.5V404.4z"/>
	<path d="M134.3,404.3c1.3,0,2.7,0.7,2.7,3.2c0,2.6-1.5,3.2-2.7,3.2c-1.3,0-2.7-0.6-2.7-3.2C131.6,404.9,133.1,404.3,134.3,404.3z
		 M134.3,409.6c1,0,1.2-1.1,1.2-2.1c0-1-0.2-2.1-1.2-2.1c-1,0-1.2,1.1-1.2,2.1C133.1,408.5,133.4,409.6,134.3,409.6z"/>
	<path d="M138.2,405.4c0-0.4,0-0.7,0-1h1.4c0,0.3,0,0.6,0,0.9h0c0.2-0.4,0.6-1,1.6-1c1.4,0,1.8,1,1.8,2.3v4h-1.5v-3.7
		c0-0.9-0.2-1.3-0.9-1.3c-0.8,0-1.1,0.7-1.1,1.5v3.6h-1.5V405.4z"/>
	<path d="M149,410.3c-0.3,0.1-1,0.4-1.8,0.4c-2,0-2.9-1.4-2.9-3.1c0-1.8,1-3.3,2.5-3.3c1.3,0,2.5,0.8,2.5,3.3v0.3h-3.6
		c0,1.1,0.4,1.7,1.6,1.7c0.9,0,1.3-0.3,1.6-0.5L149,410.3z M147.8,406.9c0-1.1-0.4-1.6-1-1.6c-0.8,0-1.1,0.8-1.1,1.6H147.8z"/>
	<path d="M150.3,409.1c0.2,0.1,0.9,0.4,1.5,0.4c0.5,0,1-0.1,1-0.6c0-0.2-0.1-0.5-0.7-0.8l-0.6-0.4c-0.6-0.4-1.3-0.8-1.3-1.7
		c0-0.9,0.8-1.8,2.1-1.8c0.8,0,1.4,0.2,1.5,0.3l-0.1,1.2c-0.4-0.1-0.8-0.3-1.3-0.3c-0.6,0-0.9,0.2-0.9,0.6c0,0.3,0.3,0.5,0.7,0.8
		l0.7,0.5c0.8,0.5,1.2,0.8,1.2,1.6c0,1.1-1,1.8-2.3,1.8c-0.8,0-1.4-0.2-1.7-0.3L150.3,409.1z"/>
	<path d="M10.3,415.7v5.4c0,1.4,0.4,1.8,1.3,1.8c0.9,0,1.3-0.5,1.3-1.8v-5.4h1.5v5.4c0,2.2-1.3,3.1-2.8,3.1c-1.6,0-2.9-0.9-2.9-3.1
		v-5.4H10.3z"/>
	<path d="M16,419c0-0.4,0-0.7,0-1h1.4c0,0.3,0,0.6,0,0.9h0c0.2-0.4,0.6-1,1.6-1c1.4,0,1.8,1,1.8,2.3v4h-1.5v-3.7
		c0-0.9-0.2-1.3-0.9-1.3c-0.8,0-1.1,0.7-1.1,1.5v3.6H16V419z"/>
	<path d="M22.3,415.3h1.5v1.5h-1.5V415.3z M22.3,417.9h1.5v6.2h-1.5V417.9z"/>
	<path d="M30.4,415.1v7.9c0,0.4,0,0.8,0,1.1H29c0-0.2,0-0.5,0-1h0c-0.2,0.5-0.7,1.1-1.6,1.1c-1.5,0-2.2-1.5-2.2-3.2
		c0-2,0.8-3.2,2.1-3.2c0.9,0,1.4,0.5,1.6,1h0v-3.7H30.4z M27.7,423.1c0.9,0,1.2-0.9,1.2-2.1c0-1.2-0.3-2.1-1.2-2.1
		c-0.8,0-1.1,0.8-1.1,2C26.6,422.4,26.8,423.1,27.7,423.1z"/>
	<path d="M32,418.3c0.4-0.2,1-0.5,2-0.5c1.9,0,2.4,0.9,2.4,2.5v2.7c0,0.4,0,0.9,0.1,1.1h-1.3c-0.1-0.2-0.1-0.5-0.1-0.8h0
		c-0.4,0.5-0.8,0.9-1.7,0.9c-1,0-1.8-0.7-1.8-1.8c0-1.7,1.4-2.1,3.2-2.1H35v-0.2c0-0.6-0.3-1.2-1.2-1.2c-0.7,0-1.4,0.4-1.7,0.6
		L32,418.3z M35,421.1h-0.1c-1.3,0-2,0.3-2,1.2c0,0.6,0.4,0.9,0.9,0.9c0.9,0,1.2-0.7,1.2-1.8V421.1z"/>
	<path d="M37.6,422.7c0.2,0.1,0.9,0.4,1.5,0.4c0.5,0,1-0.1,1-0.6c0-0.2-0.1-0.5-0.7-0.8l-0.6-0.4c-0.6-0.4-1.3-0.8-1.3-1.7
		c0-0.9,0.8-1.8,2.1-1.8c0.8,0,1.4,0.2,1.5,0.3l-0.1,1.2c-0.4-0.1-0.8-0.3-1.3-0.3c-0.6,0-0.9,0.2-0.9,0.6c0,0.3,0.3,0.5,0.7,0.8
		l0.7,0.5c0.8,0.5,1.2,0.8,1.2,1.6c0,1.1-1,1.8-2.3,1.8c-0.8,0-1.4-0.2-1.7-0.3L37.6,422.7z"/>
	<path d="M45.7,419c0-0.4,0-0.8,0-1.1h1.4c0,0.2,0,0.5,0,1h0c0.2-0.5,0.7-1.1,1.6-1.1c1.5,0,2.2,1.5,2.2,3.2c0,2-0.8,3.2-2.1,3.2
		c-0.9,0-1.4-0.5-1.6-1h0v3.5h-1.5V419z M48.4,423.1c0.8,0,1.1-0.8,1.1-2c0-1.4-0.2-2.1-1.1-2.1c-0.9,0-1.2,0.9-1.2,2.1
		C47.2,422.2,47.6,423.1,48.4,423.1z"/>
	<path d="M52.5,418.3c0.4-0.2,1-0.5,2-0.5c1.9,0,2.4,0.9,2.4,2.5v2.7c0,0.4,0,0.9,0.1,1.1h-1.3c-0.1-0.2-0.1-0.5-0.1-0.8h0
		c-0.4,0.5-0.8,0.9-1.7,0.9c-1,0-1.8-0.7-1.8-1.8c0-1.7,1.4-2.1,3.2-2.1h0.3v-0.2c0-0.6-0.3-1.2-1.2-1.2c-0.7,0-1.4,0.4-1.7,0.6
		L52.5,418.3z M55.4,421.1h-0.1c-1.3,0-2,0.3-2,1.2c0,0.6,0.4,0.9,0.9,0.9c0.9,0,1.2-0.7,1.2-1.8V421.1z"/>
	<path d="M58.2,419c0-0.4,0-0.7,0-1h1.3c0,0.4,0,0.8,0,1.1h0c0.2-0.5,0.6-1.2,1.6-1.2c0.1,0,0.2,0,0.3,0v1.4c-0.1,0-0.3-0.1-0.4-0.1
		c-0.6,0-1.3,0.4-1.3,1.5v3.4h-1.5V419z"/>
	<path d="M62.6,418.3c0.4-0.2,1-0.5,2-0.5c1.9,0,2.4,0.9,2.4,2.5v2.7c0,0.4,0,0.9,0.1,1.1h-1.3c-0.1-0.2-0.1-0.5-0.1-0.8h0
		c-0.4,0.5-0.8,0.9-1.7,0.9c-1,0-1.8-0.7-1.8-1.8c0-1.7,1.4-2.1,3.2-2.1h0.3v-0.2c0-0.6-0.3-1.2-1.2-1.2c-0.7,0-1.4,0.4-1.7,0.6
		L62.6,418.3z M65.5,421.1h-0.1c-1.3,0-2,0.3-2,1.2c0,0.6,0.4,0.9,0.9,0.9c0.9,0,1.2-0.7,1.2-1.8V421.1z"/>
	<path d="M71.5,415.1H73v9h-1.5V415.1z"/>
	<path d="M74.8,418.3c0.4-0.2,1-0.5,2-0.5c1.9,0,2.4,0.9,2.4,2.5v2.7c0,0.4,0,0.9,0.1,1.1h-1.3c-0.1-0.2-0.1-0.5-0.1-0.8h0
		c-0.4,0.5-0.8,0.9-1.7,0.9c-1,0-1.8-0.7-1.8-1.8c0-1.7,1.4-2.1,3.2-2.1h0.3v-0.2c0-0.6-0.3-1.2-1.2-1.2c-0.7,0-1.4,0.4-1.7,0.6
		L74.8,418.3z M77.7,421.1h-0.1c-1.3,0-2,0.3-2,1.2c0,0.6,0.4,0.9,0.9,0.9c0.9,0,1.2-0.7,1.2-1.8V421.1z"/>
	<path d="M87.3,422.1h-2.9l-0.6,2h-1.5l2.8-8.4h1.7l2.7,8.4h-1.6L87.3,422.1z M87,420.9L86,417h0l-1.2,3.9H87z"/>
	<path d="M90.4,415.1h1.5v9h-1.5V415.1z"/>
	<path d="M93.5,415.3H95v1.5h-1.5V415.3z M93.5,417.9H95v6.2h-1.5V417.9z"/>
	<path d="M96.5,418.9c0-0.4,0-0.8,0-1h1.5c0,0.3,0,0.6,0,1h0c0.2-0.5,0.7-1.1,1.6-1.1c1,0,1.4,0.6,1.6,1c0.3-0.4,0.7-1,1.7-1
		c1.3,0,1.8,1,1.8,2.5v3.8H103v-3.9c0-0.8-0.2-1.2-0.8-1.2c-0.7,0-1,0.6-1,1.3v3.7h-1.5v-3.9c0-0.8-0.2-1.2-0.8-1.2
		c-0.7,0-1,0.6-1,1.3v3.7h-1.5V418.9z"/>
	<path d="M110.3,423.8c-0.3,0.1-1,0.4-1.8,0.4c-2,0-2.9-1.4-2.9-3.1c0-1.8,1-3.3,2.5-3.3c1.3,0,2.5,0.8,2.5,3.3v0.3h-3.6
		c0,1.1,0.4,1.7,1.6,1.7c0.9,0,1.3-0.3,1.6-0.5L110.3,423.8z M109.2,420.5c0-1.1-0.4-1.6-1-1.6c-0.8,0-1.1,0.8-1.1,1.6H109.2z"/>
	<path d="M111.8,419c0-0.4,0-0.7,0-1h1.4c0,0.3,0,0.6,0,0.9h0c0.2-0.4,0.6-1,1.6-1c1.4,0,1.8,1,1.8,2.3v4h-1.5v-3.7
		c0-0.9-0.2-1.3-0.9-1.3c-0.8,0-1.1,0.7-1.1,1.5v3.6h-1.5V419z"/>
	<path d="M118.6,416.7l1.5-0.5v1.7h1.2v1.1h-1.2v3.2c0,0.7,0.2,0.9,0.7,0.9c0.3,0,0.5-0.1,0.6-0.1v1.1c-0.2,0.1-0.6,0.2-1,0.2
		c-1.1,0-1.7-0.5-1.7-1.8V419h-1v-1.1h1V416.7z"/>
	<path d="M122.6,418.3c0.4-0.2,1-0.5,2-0.5c1.9,0,2.4,0.9,2.4,2.5v2.7c0,0.4,0,0.9,0.1,1.1h-1.3c-0.1-0.2-0.1-0.5-0.1-0.8h0
		c-0.4,0.5-0.8,0.9-1.7,0.9c-1,0-1.8-0.7-1.8-1.8c0-1.7,1.4-2.1,3.2-2.1h0.3v-0.2c0-0.6-0.3-1.2-1.2-1.2c-0.7,0-1.4,0.4-1.7,0.6
		L122.6,418.3z M125.5,421.1h-0.1c-1.3,0-2,0.3-2,1.2c0,0.6,0.4,0.9,0.9,0.9c0.9,0,1.2-0.7,1.2-1.8V421.1z"/>
	<path d="M132.4,424c-0.3,0.1-0.9,0.2-1.5,0.2c-2,0-2.9-1.4-2.9-3.2c0-1.8,0.9-3.2,3-3.2c0.5,0,1,0.1,1.3,0.3l-0.1,1.2
		c-0.3-0.1-0.6-0.3-1-0.3c-1.1,0-1.6,0.8-1.6,2.1c0,1.2,0.6,2,1.7,2c0.4,0,0.9-0.2,1.1-0.3L132.4,424z"/>
	<path d="M133.5,415.3h1.5v1.5h-1.5V415.3z M133.5,417.9h1.5v6.2h-1.5V417.9z"/>
	<path d="M139,417.8c1.3,0,2.7,0.7,2.7,3.2c0,2.6-1.5,3.2-2.7,3.2c-1.3,0-2.7-0.6-2.7-3.2C136.3,418.5,137.8,417.8,139,417.8z
		 M139,423.2c1,0,1.2-1.1,1.2-2.1c0-1-0.2-2.1-1.2-2.1c-1,0-1.2,1.1-1.2,2.1C137.8,422,138.1,423.2,139,423.2z M139.1,415.5h1.4
		l-1.2,1.7h-0.9L139.1,415.5z"/>
	<path d="M142.9,419c0-0.4,0-0.7,0-1h1.4c0,0.3,0,0.6,0,0.9h0c0.2-0.4,0.6-1,1.6-1c1.4,0,1.8,1,1.8,2.3v4h-1.5v-3.7
		c0-0.9-0.2-1.3-0.9-1.3c-0.8,0-1.1,0.7-1.1,1.5v3.6h-1.5V419z"/>
	<path d="M10.8,436.2L10.8,436.2l1.2-4.7h1.4l-2.3,7.4c-0.3,0.9-0.8,1.5-1.8,1.5c-0.4,0-0.7-0.1-0.9-0.2l0.1-1.1
		c0.2,0.1,0.3,0.1,0.6,0.1c0.4,0,0.6-0.3,0.8-0.9l0.1-0.5L8,431.5h1.5L10.8,436.2z"/>
	<path d="M17.4,428.7h1.5v9h-1.5V428.7z"/>
	<path d="M20.7,431.8c0.4-0.2,1-0.5,2-0.5c1.9,0,2.4,0.9,2.4,2.5v2.7c0,0.4,0,0.9,0.1,1.1h-1.3c-0.1-0.2-0.1-0.5-0.1-0.8h0
		c-0.4,0.5-0.8,0.9-1.7,0.9c-1,0-1.8-0.7-1.8-1.8c0-1.7,1.4-2.1,3.2-2.1h0.3v-0.2c0-0.6-0.3-1.2-1.2-1.2c-0.7,0-1.4,0.4-1.7,0.6
		L20.7,431.8z M23.6,434.6h-0.1c-1.3,0-2,0.3-2,1.2c0,0.6,0.4,0.9,0.9,0.9c0.9,0,1.2-0.7,1.2-1.8V434.6z"/>
	<path d="M33.3,435.6h-2.9l-0.6,2h-1.5l2.8-8.4h1.7l2.7,8.4h-1.6L33.3,435.6z M33,434.5l-1.1-3.9h0l-1.2,3.9H33z"/>
	<path d="M36.4,438.6c0.3,0.2,1,0.5,1.8,0.5c1.4,0,1.6-1,1.6-1.9v-0.6h0c-0.2,0.5-0.7,1-1.6,1c-0.9,0-2.2-0.6-2.2-3.1
		c0-1.7,0.6-3.2,2.2-3.2c0.9,0,1.3,0.5,1.6,1.1h0c0-0.3,0-0.6,0-1h1.3c0,0.3,0,0.6,0,1v4.6c0,1.9-0.6,3.3-2.9,3.3
		c-1,0-1.8-0.3-2.1-0.4L36.4,438.6z M38.5,436.6c0.9,0,1.3-0.7,1.3-2.1c0-1.3-0.5-2-1.2-2c-0.8,0-1.1,0.7-1.1,2
		C37.6,436,38,436.6,38.5,436.6z"/>
	<path d="M42.7,432.5c0-0.4,0-0.7,0-1H44c0,0.4,0,0.8,0,1.1h0c0.2-0.5,0.6-1.2,1.6-1.2c0.1,0,0.2,0,0.3,0v1.4
		c-0.1,0-0.3-0.1-0.4-0.1c-0.6,0-1.3,0.4-1.3,1.5v3.4h-1.5V432.5z"/>
	<path d="M47,428.9h1.5v1.5H47V428.9z M47,431.5h1.5v6.2H47V431.5z"/>
	<path d="M54.2,437.5c-0.3,0.1-0.9,0.3-1.5,0.3c-2,0-2.9-1.4-2.9-3.2c0-1.8,0.9-3.2,3-3.2c0.5,0,1,0.1,1.3,0.3l-0.1,1.2
		c-0.3-0.1-0.6-0.3-1-0.3c-1.1,0-1.6,0.8-1.6,2.1c0,1.2,0.6,2,1.7,2c0.4,0,0.9-0.2,1.1-0.3L54.2,437.5z"/>
	<path d="M60,436.6c0,0.4,0,0.7,0,1h-1.4c0-0.3,0-0.6,0-0.9l0,0l0,0c-0.3,0.5-0.7,1-1.6,1c-1.4,0-1.8-1-1.8-2.3v-4h1.5v3.7
		c0,0.9,0.3,1.3,0.9,1.3c0.8,0,1-0.7,1-1.5v-3.5H60V436.6z"/>
	<path d="M61.4,428.7h1.5v9h-1.5V428.7z"/>
	<path d="M65,430.2l1.5-0.5v1.7h1.2v1.1h-1.2v3.2c0,0.7,0.2,0.9,0.7,0.9c0.3,0,0.5-0.1,0.6-0.1v1.1c-0.2,0.1-0.6,0.2-1,0.2
		c-1.1,0-1.7-0.5-1.7-1.8v-3.4h-1v-1.1h1V430.2z"/>
	<path d="M73.5,436.6c0,0.4,0,0.7,0,1h-1.4c0-0.3,0-0.6,0-0.9l0,0l0,0c-0.3,0.5-0.7,1-1.6,1c-1.4,0-1.8-1-1.8-2.3v-4h1.5v3.7
		c0,0.9,0.3,1.3,0.9,1.3c0.8,0,1-0.7,1-1.5v-3.5h1.5V436.6z"/>
	<path d="M74.9,432.5c0-0.4,0-0.7,0-1h1.3c0,0.4,0,0.8,0,1.1h0c0.2-0.5,0.6-1.2,1.6-1.2c0.1,0,0.2,0,0.3,0v1.4
		c-0.1,0-0.3-0.1-0.4-0.1c-0.6,0-1.3,0.4-1.3,1.5v3.4h-1.5V432.5z"/>
	<path d="M79.3,431.8c0.4-0.2,1-0.5,2-0.5c1.9,0,2.4,0.9,2.4,2.5v2.7c0,0.4,0,0.9,0.1,1.1h-1.3c-0.1-0.2-0.1-0.5-0.1-0.8h0
		c-0.4,0.5-0.8,0.9-1.7,0.9c-1,0-1.8-0.7-1.8-1.8c0-1.7,1.4-2.1,3.2-2.1h0.3v-0.2c0-0.6-0.3-1.2-1.2-1.2c-0.7,0-1.4,0.4-1.7,0.6
		L79.3,431.8z M82.2,434.6H82c-1.3,0-2,0.3-2,1.2c0,0.6,0.4,0.9,0.9,0.9c0.9,0,1.2-0.7,1.2-1.8V434.6z"/>
</g>
</svg>
